# File created by Digimation Material Library software, (c) Digimation, Inc., 2004
# Creation date: 2004-06-06 06:21:11Z

newmtl dkdkgrey
Ka 0 0 0
Kd 0.0122 0.0122 0.0122
Ks 0.3 0.3 0.3
illum 2
Ns 60

newmtl chrome
Ka 0.5143 0.5143 0.5143
Kd 0.75 0.75 0.75
Ks 0.9 0.9 0.9
illum 3
Ns 200
sharpness 200

newmtl flblack
Ka 0 0 0
Kd 0.0041 0.0041 0.0041
illum 1

newmtl black
Ka 0 0 0
Kd 0.002 0.002 0.002
Ks 0.1265 0.1265 0.1265
illum 2
Ns 157.36

