玩家人物位置

0   83.3   0  207.1
1   17.82  0  213.48
2   42.95  0  239.13
原 -23.64  0  245.93
4  -47.7   0  234.7
5  -60.09  0  144.96
6  -67.24  0  136.71
7  -91.63  0  111.4


敵人出現位置

0   41.55   0  114.28
1  -1.05    0  101.75
2  -28.73   0  90.98
3   62.17   0  85.55
4   43.8    0  70.8
5   93.5　  0  72.12
6   124.15  0  131.88
7   114.95  0  31.128
8  -76.1    0  27.68
9  -15.84   0  13.1
10  82.22   0  -2.7
11  46.9    0  -38.6
12  29.32   0  -17.4
13  12.79   0  -38.74
14 -7.7     0  -51.7
15 -60.24   0  -36.2
16 -44.6    0  -61.3
17  112.1   0  -53.38
18  62.98   0  -85.34
19 -16      0  -126.51
20 -113.6   0  -89.42
21 -59.1    0  -148.2
22  88.50   0  -129.13
23 -16.46   0  -192.99
24  167.04  0  -157.17
25 -102.71  0  -221.14
26  68.73   0  -240.66
27  123.71  0  -204.6