# Max2Obj Version 3.0 Jul 11th, 1999
#
mtllib ./AGM-12 BullpupL.mtl
g
# object background to come ...
#
v  172.894348144531 -77.286338806152 887.979125976563
v  674.807556152344 -77.286354064941 536.535705566406
v  703.185241699219 -75.858894348145 516.665466308594
v  733.046569824219 -70.60627746582 495.756317138672
v  763.661682128906 -60.111457824707 474.319366455078
v  794.300842285156 -42.95726776123 452.865600585938
v  824.234008789063 -17.72664642334 431.906158447266
v  852.7314453125 16.997619628906 411.952056884766
v  879.063232421875 62.63256072998 393.514343261719
v  902.499450683594 120.595390319824 377.104125976563
v  922.310241699219 192.303100585938 363.232452392578
v  937.765808105469 279.172882080078 352.410339355469
v  948.13623046875 382.621948242188 345.148895263672
v  952.691650390625 504.067260742188 341.959167480469
v  -945.579650878906 -77.286415100098 -709.3671875
v  -443.666473388672 -77.286430358887 -1060.810546875
v  -415.288787841797 -75.858963012695 -1080.680908203125
v  -385.427459716797 -70.606346130371 -1101.589965820313
v  -354.812316894531 -60.111530303955 -1123.026977539063
v  -324.173187255859 -42.957340240479 -1144.480712890625
v  -294.239990234375 -17.726718902588 -1165.440185546875
v  -265.742584228516 16.997547149658 -1185.394287109375
v  -239.410797119141 62.632488250732 -1203.831909179688
v  -215.974563598633 120.595314025879 -1220.2421875
v  -196.16374206543 192.303039550781 -1234.113891601563
v  -180.708190917969 279.172821044922 -1244.935913085938
v  -170.337783813477 382.621856689453 -1252.197387695313
v  -165.782363891602 504.067169189453 -1255.38720703125
# 28 vertices

vt  0.999500274658 0.000499546528 0.000499516726
vt  0.356497764587 0.000499784946 0.000499516726
vt  0.320143014193 0.002952754498 0.000499516726
vt  0.281887561083 0.011978894472 0.000499516726
vt  0.242666393518 0.030013233423 0.000499516726
vt  0.203414529562 0.059491068125 0.000499516726
vt  0.165067017078 0.102847516537 0.000499516726
vt  0.128558903933 0.162517845631 0.000499516726
vt  0.094825208187 0.240937143564 0.000499516726
vt  0.064800977707 0.340540707111 0.000499516726
vt  0.039421290159 0.463763564825 0.000499516726
vt  0.019621163607 0.613040983677 0.000499516726
vt  0.006335616112 0.790808320045 0.000499516726
vt  0.000499695539 0.999500393867 0.000499516726
vt  0.999500274658 0.000499546528 0.999500513077
vt  0.356497764587 0.000499784946 0.999500513077
vt  0.320143014193 0.002952754498 0.999500513077
vt  0.281887561083 0.011978894472 0.999500513077
vt  0.242666393518 0.030013233423 0.999500513077
vt  0.203414529562 0.059491068125 0.999500513077
vt  0.165067017078 0.102847516537 0.999500513077
vt  0.128558903933 0.162517845631 0.999500513077
vt  0.094825208187 0.240937143564 0.999500513077
vt  0.064800977707 0.340540707111 0.999500513077
vt  0.039421290159 0.463763564825 0.999500513077
vt  0.019621163607 0.613040983677 0.999500513077
vt  0.006335616112 0.790808320045 0.999500513077
vt  0.000499695539 0.999500393867 0.999500513077
# 28 texture vertices

vn  0.000000038785 1.949999928474 -0.000000027768
vn  -0.043850429356 1.949265003204 0.030704401433
vn  -0.173993512988 1.938397049904 0.121831573546
vn  -0.36451920867 1.898546338081 0.255239099264
vn  -0.589472651482 1.812362194061 0.412753194571
vn  -0.829818725586 1.666219353676 0.581045329571
vn  -1.058638691902 1.460242271423 0.741266787052
vn  -1.250883221626 1.212694764137 0.875877857208
vn  -1.393929958344 0.952262818813 0.976040244102
vn  -1.489442944527 0.704541683197 1.042919158936
vn  -1.547295212746 0.484315425158 1.083427786827
vn  -1.578817129135 0.296153664589 1.105499625206
vn  -1.593311548233 0.138512313366 1.11564874649
vn  -1.595674395561 0.089199610054 1.11730325222
vn  0.000000038785 1.949999928474 -0.000000027768
vn  -0.021925196052 1.949816226959 0.015352186747
vn  -0.119916372001 1.944497227669 0.083966344595
vn  -0.296379685402 1.916139602661 0.207527294755
vn  -0.511242508888 1.84742641449 0.357975840569
vn  -0.748982429504 1.722348570824 0.524443149567
vn  -0.984752595425 1.535353064537 0.689531207085
vn  -1.191536903381 1.298708677292 0.834323108196
vn  -1.351661682129 1.039112329483 0.946443676949
vn  -1.462315559387 0.784673273563 1.023924350739
vn  -1.531482934952 0.554177522659 1.072355866432
vn  -1.570620894432 0.355212956667 1.099760532379
vn  -1.589923858643 0.187767729163 1.113276720047
vn  -1.595674395561 0.089199610054 1.11730325222
# 28 vertex normals

g background
usemtl background
s 1
f -27/-27/-27 -13/-13/-13 -14/-14/-14 -28/-28/-28
s 3
f -26/-26/-26 -12/-12/-12 -13/-13/-13 -27/-27/-27
s 2
f -25/-25/-25 -11/-11/-11 -12/-12/-12 -26/-26/-26
f -24/-24/-24 -10/-10/-10 -11/-11/-11 -25/-25/-25
f -23/-23/-23 -9/-9/-9 -10/-10/-10 -24/-24/-24
f -22/-22/-22 -8/-8/-8 -9/-9/-9 -23/-23/-23
f -21/-21/-21 -7/-7/-7 -8/-8/-8 -22/-22/-22
f -20/-20/-20 -6/-6/-6 -7/-7/-7 -21/-21/-21
f -19/-19/-19 -5/-5/-5 -6/-6/-6 -20/-20/-20
f -18/-18/-18 -4/-4/-4 -5/-5/-5 -19/-19/-19
f -17/-17/-17 -3/-3/-3 -4/-4/-4 -18/-18/-18
f -16/-16/-16 -2/-2/-2 -3/-3/-3 -17/-17/-17
f -15/-15/-15 -1/-1/-1 -2/-2/-2 -16/-16/-16
# 13 faces

g
# object AGM-12_Bullpup to come ...
#
v  -0.230104625225 -54.472835540771 118.607803344727
v  13.91203212738 -68.509552001953 116.884307861328
v  6.937255859375 -73.005264282227 116.332305908203
v  -1.276820540428 -74.29655456543 116.173759460449
v  -9.309910774231 -72.160133361816 116.436080932617
v  -15.773020744324 -66.965423583984 117.073905944824
v  -19.54861831665 -59.6106300354 117.97696685791
v  -19.983869552612 -51.3674659729 118.989097595215
v  -17.00351524353 -43.661247253418 119.935302734375
v  -11.122885704041 -37.824451446533 120.651969909668
v  -3.358794212341 -34.866313934326 121.015182495117
v  4.946274280548 -35.298320770264 120.962135314941
v  12.356301307678 -39.04577255249 120.502006530762
v  17.590023040771 -45.460708618164 119.714347839355
v  19.742483139038 -53.433921813965 118.735366821289
v  18.441501617432 -61.586769104004 117.734321594238
v  13.912014961243 -31.948802947998 -180.879501342773
v  6.937239170074 -36.444511413574 -181.431503295898
v  -1.276837229729 -37.73579788208 -181.590042114258
v  -9.309926986694 -35.599380493164 -181.327728271484
v  -15.773037910461 -30.404670715332 -180.689895629883
v  -19.548635482788 -23.049879074097 -179.786849975586
v  -19.98388671875 -14.806715011597 -178.774703979492
v  -17.003532409668 -7.100495815277 -177.828506469727
v  -11.122902870178 -1.263699173927 -177.111846923828
v  -3.358810901642 1.694439768791 -176.748626708984
v  4.946257591248 1.262433648109 -176.801666259766
v  12.356284141541 -2.485021114349 -177.261795043945
v  17.590007781982 -8.899954795837 -178.049453735352
v  19.7424659729 -16.873167037964 -179.028442382813
v  18.441486358643 -25.0260181427 -180.029479980469
v  -0.230121344328 -17.912082672119 -179.156005859375
v  13.459352493286 -21.062683105469 3.125020027161
v  19.116207122803 -26.677370071411 2.435623407364
v  13.459352493286 -22.037635803223 11.06538772583
v  19.116205215454 -27.652324676514 10.375991821289
v  12.752245903015 -21.642648696899 2.04629945755
v  12.045139312744 -21.062683105469 3.125020027161
v  12.045139312744 -22.037635803223 11.065388679504
v  12.752244949341 -22.861343383789 11.971759796143
v  18.409099578857 -28.476030349731 11.282362937927
v  19.116205215454 -29.055995941162 10.203641891479
v  19.116205215454 -28.081043243408 2.26327419281
v  18.409099578857 -27.257335662842 1.356902956963
v  10.630925178528 -23.748157501221 1.787776112556
v  9.923818588257 -23.168190002441 2.866496801376
v  9.923817634583 -24.143144607544 10.806864738464
v  10.630925178528 -24.966850280762 11.713235855103
v  16.28777885437 -30.581537246704 11.023839950562
v  16.994886398315 -31.161504745483 9.945118904114
v  16.994884490967 -30.186550140381 2.004750728607
v  16.28777885437 -29.362846374512 1.09837937355
v  15.580671310425 -31.161506652832 9.945118904114
v  9.923818588257 -25.546817779541 10.634515762329
v  15.580671310425 -30.186550140381 2.004750967026
v  9.923818588257 -24.571863174438 2.694147586823
v  51.954208374023 26.271507263184 -110.869361877441
v  51.954208374023 30.467777252197 -145.045227050781
v  13.266285896301 -7.931771278381 -149.76008605957
v  13.266279220581 -19.643968582153 -54.37190246582
v  51.86901473999 26.60138130188 -110.759742736816
v  51.86901473999 30.828039169312 -145.183074951172
v  12.925511360168 -7.825188159943 -149.929092407227
v  12.925504684448 -19.61742401123 -53.889041900635
v  51.656032562256 26.8127784729 -110.733787536621
v  51.656032562256 31.039434432983 -145.157119750977
v  12.712527275085 -7.613791465759 -149.903137207031
v  12.712520599365 -19.40602684021 -53.863082885742
v  51.315254211426 26.905696868896 -110.791496276855
v  51.315258026123 31.10196685791 -144.967361450195
v  12.627333641052 -7.297582149506 -149.682220458984
v  12.627326965332 -19.009780883789 -54.294033050537
v  51.315254211426 -77.125053405762 -123.564865112305
v  51.315258026123 -72.928779602051 -157.740753173828
v  12.627331733704 -34.529232025146 -153.02587890625
v  12.627327919006 -46.241432189941 -57.637672424316
v  51.954204559326 -76.490867614746 -123.486999511719
v  51.954208374023 -72.294593811035 -157.662872314453
v  13.266283988953 -33.895042419434 -152.948013305664
v  13.266280174255 -45.607242584229 -57.559803009033
v  -52.857803344727 -76.490859985352 -123.487007141113
v  -52.857799530029 -72.294593811035 -157.662872314453
v  -14.169875144958 -33.895042419434 -152.948013305664
v  -14.169878959656 -45.607242584229 -57.559787750244
v  -52.218852996826 -77.125053405762 -123.564872741699
v  -52.218849182129 -72.928779602051 -157.740737915039
v  -13.530922889709 -34.529232025146 -153.02587890625
v  -13.530926704407 -46.241432189941 -57.637657165527
v  -52.218845367432 26.905704498291 -110.791519165039
v  -52.218849182129 31.101972579956 -144.967346191406
v  -13.530932426453 -7.297571659088 -149.682220458984
v  -13.530914306641 -19.009788513184 -54.294048309326
v  -52.857795715332 26.271514892578 -110.869384765625
v  -52.857799530029 30.467782974243 -145.045227050781
v  -14.169883728027 -7.931760787964 -149.76008605957
v  -14.169865608215 -19.643978118896 -54.371917724609
v  19.027502059937 -39.559009552002 155.097045898438
v  11.212060928345 -47.31619644165 154.144577026367
v  9.863079071045 -50.273471832275 167.160583496094
v  18.391107559204 -38.927356719971 155.174606323242
v  10.575664520264 -46.684543609619 154.222137451172
v  9.226682662964 -49.641819000244 167.238143920898
v  18.532526016235 -77.751747131348 150.407562255859
v  10.717084884644 -69.994560241699 151.36003112793
v  9.368103027344 -70.273979187012 164.704818725586
v  19.168922424316 -77.120094299316 150.485122680664
v  11.353481292725 -69.362907409668 151.437576293945
v  10.00449848175 -69.64232635498 164.782379150391
v  -19.947032928467 -77.260459899902 150.467880249023
v  -12.131589889526 -69.503273010254 151.420349121094
v  -10.782608032227 -69.782691955566 164.765151977539
v  -19.310636520386 -77.892112731934 150.390335083008
v  -11.495193481445 -70.134925842285 151.342788696289
v  -10.14621257782 -70.414344787598 164.687591552734
v  -19.452054977417 -39.067722320557 155.157363891602
v  -11.636612892151 -46.824909210205 154.204895019531
v  -10.287630081177 -49.78218460083 167.220901489258
v  -20.088451385498 -39.699375152588 155.079803466797
v  -12.273009300232 -47.456562042236 154.127349853516
v  -10.924025535583 -50.413837432861 167.143341064453
v  -0.226092368364 -66.112213134766 212.168899536133
v  1.416145801544 -63.835189819336 210.043884277344
v  0.994201600552 -63.555355072021 210.078247070313
v  0.525361120701 -63.362602233887 210.101913452148
v  0.027641523629 -63.264339447021 210.113983154297
v  -0.479829162359 -63.264339447021 210.113983154297
v  -0.977548062801 -63.362602233887 210.101913452148
v  -1.446387410164 -63.555355072021 210.078247070313
v  -1.868332982063 -63.835189819336 210.043884277344
v  -2.227168321609 -64.191352844238 210.000152587891
v  -2.509103536606 -64.610153198242 209.94873046875
v  -2.703302621841 -65.075500488281 209.8916015625
v  -2.802305936813 -65.56950378418 209.830932617188
v  -2.802306175232 -66.073188781738 209.769088745117
v  -2.703302145004 -66.567199707031 209.708435058594
v  -2.509101629257 -67.03254699707 209.651306152344
v  -2.227166891098 -67.451347351074 209.599884033203
v  -1.868331432343 -67.807510375977 209.55615234375
v  -1.446385383606 -68.087341308594 209.521789550781
v  -0.97754496336 -68.280097961426 209.498123168945
v  -0.479826927185 -68.378356933594 209.486053466797
v  0.02764348872 -68.378356933594 209.486053466797
v  0.525362551212 -68.280097961426 209.498123168945
v  0.994201660156 -68.087341308594 209.521789550781
v  1.416147232056 -67.807510375977 209.55615234375
v  1.774982571602 -67.451347351074 209.599884033203
v  2.056917905807 -67.03254699707 209.651306152344
v  2.251118659973 -66.567199707031 209.708435058594
v  2.350121021271 -66.073188781738 209.769088745117
v  2.350120782852 -65.56950378418 209.830932617188
v  2.251118421555 -65.075492858887 209.8916015625
v  2.056916952133 -64.610145568848 209.94873046875
v  1.774982094765 -64.191345214844 210.000152587891
v  -11.308287620544 -55.825927734375 176.999649047852
v  -12.250974655151 -58.084812164307 176.722290039063
v  9.487525939941 -48.002590179443 161.798965454102
v  6.991775989532 -46.347415924072 162.002182006836
v  -12.062180519104 -50.109230041504 161.540298461914
v  -14.878455162048 -55.338836669922 160.898193359375
v  8.008713722229 -42.614730834961 147.213394165039
v  12.400667190552 -39.354740142822 120.494758605957
v  5.55163192749 -35.721145629883 120.94091796875
v  -2.177003622055 -34.96561050415 121.033683776855
v  -9.608633995056 -37.203170776367 120.758941650391
v  -15.611861228943 -42.093166351318 120.158531188965
v  -19.272741317749 -48.891147613525 119.323844909668
v  -20.03394317627 -56.56217956543 118.381958007813
v  -17.779581069946 -63.938415527344 117.476272583008
v  -12.852860450745 -69.896896362305 116.744659423828
v  -6.003826618195 -73.530494689941 116.298515319824
v  1.724811673164 -74.286026000977 116.205741882324
v  9.156445503235 -72.048461914063 116.480484008789
v  15.159668922424 -67.158470153809 117.080894470215
v  18.82054901123 -60.360488891602 117.915580749512
v  19.581750869751 -52.689453125 118.857467651367
v  17.327386856079 -45.313217163086 119.763153076172
v  1.374485135078 -64.27214050293 210.316284179688
v  2.32807469368 -62.458728790283 207.951354980469
v  1.031471967697 -63.992736816406 210.3505859375
v  1.671824812889 -62.023502349854 208.004791259766
v  0.640132248402 -63.785121917725 210.376083374023
v  0.942637979984 -61.72371673584 208.041610717773
v  0.215505853295 -63.657272338867 210.391784667969
v  0.168539404869 -61.570888519287 208.060363769531
v  -0.226093113422 -63.614101409912 210.397079467773
v  -0.620725154877 -61.57088470459 208.060363769531
v  -0.66769182682 -63.657272338867 210.391784667969
v  -1.394825100899 -61.72371673584 208.041610717773
v  -1.092319250107 -63.785118103027 210.376083374023
v  -2.124009609222 -62.023502349854 208.004791259766
v  -1.483657956123 -63.992736816406 210.3505859375
v  -2.780260801315 -62.458728790283 207.951354980469
v  -1.826669692993 -64.27214050293 210.316284179688
v  -3.338354110718 -63.012664794922 207.883346557617
v  -2.108171701431 -64.612594604492 210.274475097656
v  -3.776846170425 -63.66402053833 207.803359985352
v  -2.317347764969 -65.001014709473 210.226791381836
v  -4.078885555267 -64.387771606445 207.714492797852
v  -2.44615650177 -65.422485351563 210.175033569336
v  -4.23286151886 -65.156097412109 207.620162963867
v  -2.489649295807 -65.860786437988 210.121215820313
v  -4.232861995697 -65.939483642578 207.523971557617
v  -2.446156263351 -66.299095153809 210.067398071289
v  -4.07888507843 -66.707809448242 207.429641723633
v  -2.317347288132 -66.720558166504 210.015655517578
v  -3.776845932007 -67.431564331055 207.340774536133
v  -2.108170986176 -67.108978271484 209.967956542969
v  -3.338352918625 -68.082916259766 207.260787963867
v  -1.826668262482 -67.449432373047 209.926162719727
v  -2.780257463455 -68.636856079102 207.192779541016
v  -1.483657360077 -67.72883605957 209.891860961914
v  -2.124008178711 -69.072074890137 207.139343261719
v  -1.092317700386 -67.936454772949 209.866363525391
v  -1.394823431969 -69.371864318848 207.102523803711
v  -0.667689681053 -68.064308166504 209.850662231445
v  -0.620723128319 -69.524696350098 207.083770751953
v  -0.226092606783 -68.107475280762 209.845367431641
v  0.168542101979 -69.524696350098 207.083770751953
v  0.215506091714 -68.064308166504 209.850662231445
v  0.942640185356 -69.371864318848 207.102523803711
v  0.640134453773 -67.936454772949 209.866363525391
v  1.67182636261 -69.072074890137 207.139343261719
v  1.031473994255 -67.72883605957 209.891860961914
v  2.328075170517 -68.636856079102 207.192779541016
v  1.374485611916 -67.449432373047 209.926162719727
v  2.886170387268 -68.082916259766 207.260787963867
v  1.655987739563 -67.108978271484 209.967956542969
v  3.324662208557 -67.431564331055 207.340774536133
v  1.865162134171 -66.720558166504 210.015655517578
v  3.626700162888 -66.707809448242 207.429641723633
v  1.993972539902 -66.299095153809 210.067398071289
v  3.780676841736 -65.939483642578 207.523971557617
v  2.037466287613 -65.860786437988 210.121215820313
v  3.780677080154 -65.156097412109 207.620162963867
v  1.993970870972 -65.422477722168 210.175033569336
v  3.626699209213 -64.387771606445 207.714492797852
v  1.865161895752 -65.001022338867 210.226791381836
v  3.324660778046 -63.66402053833 207.803359985352
v  1.655986189842 -64.612594604492 210.274475097656
v  2.886167526245 -63.012660980225 207.883346557617
v  2.968425750732 -60.297328948975 204.040496826172
v  1.974328279495 -57.160209655762 198.781982421875
v  0.895671248436 -59.445167541504 204.145141601563
v  -0.969088017941 -56.872467041016 198.817321777344
v  -1.347859501839 -59.445167541504 204.145141601563
v  -3.799386978149 -57.724632263184 198.712692260742
v  -3.420612573624 -60.297328948975 204.040496826172
v  -6.085686206818 -59.586963653564 198.484024047852
v  -5.007028579712 -61.871921539307 203.84716796875
v  -7.479915618896 -62.175941467285 198.166137695313
v  -5.86559009552 -63.929222106934 203.59455871582
v  -7.769815921783 -65.097412109375 197.807418823242
v  -5.865588665009 -66.156036376953 203.321151733398
v  -6.911251544952 -67.906616210938 197.462493896484
v  -5.007027626038 -68.213333129883 203.068542480469
v  -5.034934043884 -70.175880432129 197.183868408203
v  -3.420610904694 -69.787925720215 202.875198364258
v  -2.426514148712 -71.559715270996 197.013946533203
v  -1.347856640816 -70.640090942383 202.770568847656
v  0.516902327538 -71.847457885742 196.978622436523
v  0.895675361156 -70.640090942383 202.770568847656
v  3.347201824188 -70.995292663574 197.083251953125
v  2.968427658081 -69.787925720215 202.875198364258
v  5.633500576019 -69.132957458496 197.311920166016
v  4.554842948914 -68.213333129883 203.068542480469
v  7.027729988098 -66.543983459473 197.629806518555
v  5.413403987885 -66.156036376953 203.321151733398
v  7.317630290985 -63.622509002686 197.988510131836
v  5.413405895233 -63.929225921631 203.59455871582
v  4.554841518402 -61.871921539307 203.84716796875
v  4.961521625519 -55.847942352295 192.279205322266
v  8.400597572327 -60.007228851318 191.768508911133
v  8.659487724304 -49.979808807373 169.623016357422
v  2.225429773331 -49.472541809082 177.779754638672
v  -0.226097166538 -49.232883453369 177.809173583984
v  -2.677623033524 -49.472537994385 177.779754638672
v  -5.034940719604 -50.182292938232 177.692596435547
v  -7.207455158234 -51.334873199463 177.551086425781
v  -11.053212165833 -51.906867980957 169.38639831543
v  -10.674436569214 -54.776012420654 177.128555297852
v  -11.835669517517 -56.932334899902 176.863800048828
v  -12.550751686096 -64.13858795166 175.978988647461
v  -11.835666656494 -66.478332519531 175.691696166992
v  -10.674433708191 -68.634651184082 175.426940917969
v  -9.111675262451 -70.524688720703 175.194869995117
v  -7.207448482513 -72.075790405273 175.004409790039
v  -5.034934520721 -73.228370666504 174.862899780273
v  -2.677617788315 -73.938125610352 174.775756835938
v  -0.22608821094 -74.177780151367 174.746322631836
v  2.225437164307 -73.938125610352 174.775756835938
v  4.582753658295 -73.228370666504 174.862899780273
v  6.755265712738 -72.075790405273 175.004425048828
v  8.659491539001 -70.524681091309 175.194869995117
v  10.222249031067 -68.634651184082 175.426940917969
v  11.38348197937 -66.478332519531 175.691696166992
v  12.098563194275 -64.13858795166 175.978988647461
v  12.340021133423 -61.70532989502 176.277740478516
v  12.098563194275 -59.272075653076 176.576507568359
v  11.383480072021 -56.932331085205 176.863800048828
v  10.222242355347 -46.165882110596 154.186187744141
v  8.280711174011 -47.11400604248 161.908065795898
v  4.554834842682 -43.159172058105 154.555374145508
v  -3.213294267654 -44.844749450684 162.18669128418
v  -8.732906341553 -47.11400604248 161.908065795898
v  9.479250907898 -43.489330291748 147.106002807617
v  -6.911260128021 -41.88703918457 147.302749633789
v  -14.751179695129 -48.273136138916 146.518630981445
v  -17.359596252441 -61.288806915283 144.920516967773
v  -12.578659057617 -70.166641235352 143.830444335938
v  -6.911248683929 -73.925247192383 143.368957519531
v  -0.226089790463 -75.245101928711 143.206893920898
v  6.4590716362 -73.925254821777 143.368942260742
v  12.126473426819 -70.166633605957 143.830444335938
v  15.913311004639 -64.541473388672 144.521133422852
v  17.243068695068 -57.906143188477 145.335845947266
v  14.298981666565 -48.273139953613 146.518630981445
v  -10.757016181946 -40.695495605469 134.490356445313
v  -2.014429092407 -36.571697235107 120.569725036621
v  -16.316795349121 -46.056999206543 119.405075073242
v  -16.316789627075 -63.130100250244 117.30876159668
v  -2.014418840408 -72.615409851074 116.144111633301
v  13.877521514893 -66.081809997559 116.946327209473
v  13.877512931824 -43.105285644531 119.76749420166
v  9.493908882141 -45.598331451416 154.147064208984
v  9.206658363342 -45.024711608887 152.957626342773
v  8.305777549744 -44.269142150879 152.348526000977
v  8.778734207153 -45.550457000732 155.724975585938
v  9.421773910522 -45.683544158936 154.59831237793
v  6.76962852478 -43.572914123535 152.82373046875
v  6.903537273407 -44.569160461426 156.083465576172
v  9.053853988647 -45.654754638672 155.400009155273
v  6.471786499023 -43.516979217529 153.142761230469
v  9.271334648132 -45.701393127441 155.020126342773
v  7.670670986176 -43.885662078857 152.37483215332
v  6.050549507141 -43.818050384521 154.936981201172
v  7.407460689545 -44.853610992432 156.217498779297
v  8.517732620239 -45.449291229248 155.922729492188
v  8.806516647339 -45.558158874512 155.693786621094
v  9.010436058044 -45.637798309326 155.451583862305
v  7.337352275848 -45.949131011963 151.858856201172
v  5.052177429199 -45.457099914551 154.342727661133
v  5.801199913025 -45.252902984619 152.334060668945
v  5.935108661652 -46.249153137207 155.593795776367
v  8.085425376892 -47.334747314453 154.910339355469
v  8.41015625 -46.938827514648 152.813369750977
v  8.074502944946 -46.521862030029 152.273712158203
v  6.702242851257 -45.565650939941 151.885162353516
v  5.438054561615 -45.194274902344 152.757461547852
v  5.209560871124 -45.672534942627 154.830993652344
v  6.439033031464 -46.533599853516 155.727828979492
v  7.549304485321 -47.129280090332 155.433044433594
v  7.838088512421 -47.238147735596 155.204116821289
v  8.508945465088 -47.297420501709 153.763854980469
v  -11.312823295593 -52.149211883545 169.087524414063
v  -13.209602355957 -55.649879455566 169.119415283203
v  -12.75257396698 -55.232776641846 170.280944824219
v  -11.414006233215 -52.104434967041 168.631317138672
v  -12.003672599792 -52.460151672363 167.477325439453
v  -13.090071678162 -55.591579437256 169.550567626953
v  -12.555411338806 -54.946113586426 170.554153442383
v  -12.248087882996 -52.724941253662 167.206802368164
v  -12.935363769531 -55.449726104736 169.942153930664
v  -12.350988388062 -54.598190307617 170.748580932617
v  -12.899078369141 -53.731254577637 166.9169921875
v  -13.35337638855 -55.178039550781 167.734649658203
v  -13.101238250732 -55.597026824951 169.510284423828
v  -13.04567527771 -55.544647216797 169.674621582031
v  -12.943261146545 -55.456520080566 169.922988891602
v  -11.550150871277 -53.134281158447 170.58447265625
v  -11.333484649658 -52.612258911133 170.091979980469
v  -11.03965473175 -56.161087036133 169.829116821289
v  -11.377152442932 -56.519889831543 169.098754882813
v  -9.856056213379 -53.074645996094 167.750350952148
v  -10.53516960144 -53.653251647949 166.754974365234
v  -11.222444534302 -56.378036499023 169.490325927734
v  -10.199757575989 -53.313858032227 167.155487060547
v  -11.186159133911 -54.659568786621 166.465179443359
v  -11.5695104599 -55.754066467285 166.915939331055
v  -11.639232635498 -56.327102661133 167.63102722168
v  -11.535301208496 -56.561172485352 168.477096557617
v  -10.598478317261 -55.448944091797 170.316589355469
v  -9.940230369568 -54.2551612854 170.240295410156
v  -9.620565414429 -53.540573120117 169.640167236328
v  -9.578411102295 -53.153774261475 168.895462036133
v  13.957077026367 -4.13907623291 -177.463851928711
v  9.71443271637 -3.475315570831 -217.682739257813
v  7.239558696747 -5.931741714478 -217.984344482422
v  10.421542167664 -7.64825630188 -177.894714355469
v  -0.185055866838 1.675123214722 -176.749954223633
v  -0.185059770942 0.594623863697 -217.183013916016
v  -0.185060873628 -2.879287242889 -217.609558105469
v  -0.185057714581 -3.287606716156 -177.359298706055
v  -14.327191352844 -4.139078617096 -177.463851928711
v  -10.084554672241 -3.475317239761 -217.682739257813
v  -7.60968208313 -5.931743144989 -217.984344482422
v  -10.791658401489 -7.648258686066 -177.894714355469
v  -20.18505859375 -18.175800323486 -179.18733215332
v  -14.185062408447 -13.301021575928 -218.889175415039
v  -10.685062408447 -13.301021575928 -218.889175415039
v  -15.18505859375 -18.175798416138 -179.18733215332
v  -14.327198028564 -32.212520599365 -180.910827636719
v  -10.084559440613 -23.126726150513 -220.095626831055
v  -7.60968542099 -20.670299530029 -219.794006347656
v  -10.791663169861 -28.703338623047 -180.479949951172
v  -0.185063958168 -38.026718139648 -181.624725341797
v  -0.185065165162 -27.196662902832 -220.595352172852
v  -0.185065090656 -23.72275352478 -220.168807983398
v  -0.185062780976 -33.063987731934 -181.015380859375
v  13.957071304321 -32.212516784668 -180.910827636719
v  9.714428901672 -23.126722335815 -220.095626831055
v  7.239556312561 -20.670297622681 -219.794006347656
v  10.421537399292 -28.70333480835 -180.479949951172
v  19.814935684204 -18.175792694092 -179.18733215332
v  13.814933776855 -13.30101776123 -218.889175415039
v  10.314935684204 -13.301018714905 -218.889175415039
v  14.814937591553 -18.17579460144 -179.18733215332
# 416 vertices

vt  0.443390786648 0.249895572662 0.006691392511
vt  0.042290892452 0.249895572662 0.988094687462
vt  0.975213050842 0.249895572662 0.986983776093
vt  0.908097684383 0.249895572662 0.987014174461
vt  0.841023921967 0.249895572662 0.988180458546
vt  0.774062991142 0.249895572662 0.990277469158
vt  0.707265675068 0.249895572662 0.992937982082
vt  0.640653252602 0.249895572662 0.995699644089
vt  0.574214994907 0.249895572662 0.998085975647
vt  0.507910728455 0.249895572662 0.999688327312
vt  0.441678345203 0.249895572662 1.000233769417
vt  0.375443965197 0.249895572662 0.999629795551
vt  0.309134185314 0.249895572662 0.9979788661
vt  0.242687702179 0.249895572662 0.995562195778
vt  0.176065713167 0.249895572662 0.992793679237
vt  0.109259106219 0.249895572662 0.99015134573
vt  0.04229048267 0.860609650612 0.988095402718
vt  0.975212693214 0.860609650612 0.986985504627
vt  0.908097505569 0.860609650612 0.987016618252
vt  0.841023921967 0.860609650612 0.98818308115
vt  0.774063169956 0.860609650612 0.990279912949
vt  0.707265973091 0.860609650612 0.992939829826
vt  0.640653669834 0.860609650612 0.995700478554
vt  0.57421541214 0.860609650612 0.998085737228
vt  0.507911145687 0.860609650612 0.999687075615
vt  0.441678583622 0.860609650612 1.00023162365
vt  0.375444084406 0.860609650612 0.999627232552
vt  0.309134095907 0.860609650612 0.997976243496
vt  0.24268746376 0.860609650612 0.995559990406
vt  0.176065355539 0.860609650612 0.992792308331
vt  0.109258674085 0.860609650612 0.990151047707
vt  0.443429648876 0.860609650612 0.006689282134
vt  -0.024786949158 0.249895572662 0.986983776093
vt  -0.024786949158 0.249895572662 0.986983776093
vt  -0.024787306786 0.860609650612 0.986985504627
vt  -0.024786949158 0.249895572662 0.986983776093
vt  -0.024787306786 0.860609650612 0.986985504627
vt  -0.024787306786 0.860609650612 0.986985504627
vt  -0.024787306786 0.860609650612 0.986985504627
vt  -4 4 5
vt  4 4 5
vt  -4 -4 5
vt  4 -4 5
vt  -4 5 4
vt  -5 4 4
vt  -5 -4 4
vt  -4 -5 4
vt  4 -5 4
vt  5 -4 4
vt  5 4 4
vt  4 5 4
vt  -4 5 1
vt  -5 4 1
vt  -5 -4 1
vt  -4 -5 1
vt  4 -5 1
vt  5 -4 1
vt  5 4 1
vt  4 5 1
vt  4 -4 0
vt  -4 -4 0
vt  4 4 0
vt  -4 4 0
vt  0 0 0
vt  0.25 0 0
vt  0.5 0 0
vt  0.75 0 0
vt  1 0 0
vt  0 0.349957108498 0
vt  0.128686830401 0.349957108498 0
vt  0.333040207624 0.349957108498 0
vt  0.692072510719 0.349957108498 0
vt  1 0.349957108498 0
vt  0 0.650042891502 0
vt  0.128686830401 0.650042891502 0
vt  0.333040207624 0.650042891502 0
vt  0.692072510719 0.650042891502 0
vt  1 0.650042891502 0
vt  0 1 0
vt  0.25 1 0
vt  0.5 1 0
vt  0.75 1 0
vt  1 1 0
vt  0.272088587284 0.167885601521 0.927823007107
vt  1.01756131649 0.1678853333 0.927822947502
vt  0.539178073406 0.746137499809 0.927821516991
vt  0.272088706493 0.746137619019 0.92782330513
vt  -22.608795166016 45.411777496338 -0.000002949463
vt  -79.76676940918 45.411777496338 0
vt  -79.76676940918 -45.411777496338 0
vt  79.76676940918 -45.411777496338 0
vt  -22.608795166016 45.411777496338 1.499997019768
vt  -79.76676940918 45.411777496338 1.5
vt  -79.76676940918 -45.411777496338 1.5
vt  79.76676940918 -45.411777496338 1.5
vt  -22.608795166016 45.411777496338 -0.000002949463
vt  -79.76676940918 45.411777496338 0
vt  -79.76676940918 -45.411777496338 0
vt  79.76676940918 -45.411777496338 0
vt  -22.608795166016 45.411777496338 1.499997019768
vt  -79.76676940918 45.411777496338 1.5
vt  -79.76676940918 -45.411777496338 1.5
vt  79.76676940918 -45.411777496338 1.5
vt  -22.608795166016 45.411777496338 -0.000002949463
vt  -79.76676940918 45.411777496338 0
vt  -79.76676940918 -45.411777496338 0
vt  79.76676940918 -45.411777496338 0
vt  -22.608795166016 45.411777496338 1.499997019768
vt  -79.76676940918 45.411777496338 1.5
vt  -79.76676940918 -45.411777496338 1.5
vt  79.76676940918 -45.411777496338 1.5
vt  -9.671119689941 5.526351928711 0
vt  -9.671119689941 -5.526351928711 0
vt  3.608260631561 -7.434100627899 -0.000000117817
vt  -9.671119689941 5.526351928711 0.899999976158
vt  -9.671119689941 -5.526351928711 0.899999976158
vt  3.608260631561 -7.434100627899 0.899999856949
vt  -9.671119689941 5.526351928711 0
vt  -9.671119689941 -5.526351928711 0
vt  3.608260631561 -7.434100627899 -0.000000117817
vt  -9.671119689941 5.526351928711 0.899999976158
vt  -9.671119689941 -5.526351928711 0.899999976158
vt  3.608260631561 -7.434100627899 0.899999856949
vt  -9.671119689941 5.526351928711 0
vt  -9.671119689941 -5.526351928711 0
vt  3.608260631561 -7.434100627899 -0.000000117817
vt  -9.671119689941 5.526351928711 0.899999976158
vt  -9.671119689941 -5.526351928711 0.899999976158
vt  3.608260631561 -7.434100627899 0.899999856949
vt  -9.671119689941 5.526351928711 0
vt  -9.671119689941 -5.526351928711 0
vt  3.608260631561 -7.434100627899 -0.000000117817
vt  -9.671119689941 5.526351928711 0.899999976158
vt  -9.671119689941 -5.526351928711 0.899999976158
vt  3.608260631561 -7.434100627899 0.899999856949
vt  0.787640571594 0.057964026928 0.001267897664
vt  0.307487010956 0.062822580338 0.127339914441
vt  0.339039802551 0.062822580338 0.127395093441
vt  0.370572954416 0.062822580338 0.127496927977
vt  0.402075380087 0.062822580338 0.127641350031
vt  0.433537244797 0.062822580338 0.127822726965
vt  0.464950293303 0.062822580338 0.128033936024
vt  0.49630844593 0.062822580338 0.12826667726
vt  0.52760797739 0.062822580338 0.128512024879
vt  0.55884718895 0.062822580338 0.128760442138
vt  0.590026915073 0.062822580338 0.129002392292
vt  0.621150016785 0.062822580338 0.129228591919
vt  0.652221620083 0.062822580338 0.129430621862
vt  0.68324893713 0.062822580338 0.129600688815
vt  0.714240252972 0.062822580338 0.129732370377
vt  0.74520534277 0.062822580338 0.129820808768
vt  0.776154994965 0.062822580338 0.129862725735
vt  0.807100474834 0.062822580338 0.129856497049
vt  0.838053107262 0.062822580338 0.129802390933
vt  0.86902397871 0.062822580338 0.129702433944
vt  0.900023579597 0.062822580338 0.129560261965
vt  0.931061565876 0.062822580338 0.129381358624
vt  0.962145924568 0.062822580338 0.129172369838
vt  0.993283092976 0.062822580338 0.128941208124
vt  0.024477954954 0.062822580338 0.12869669497
vt  0.055732738227 0.062822580338 0.128448173404
vt  0.087047636509 0.062822580338 0.128205180168
vt  0.11842045188 0.062822580338 0.1279771626
vt  0.149846762419 0.062822580338 0.127772897482
vt  0.181319802999 0.062822580338 0.127600416541
vt  0.21283107996 0.062822580338 0.127466484904
vt  0.244370505214 0.062822580338 0.12737634778
vt  0.275926470757 0.062822580338 0.127333655953
vt  0.588848531246 0.131576836109 0.624641299248
vt  0.620072722435 0.131576836109 0.624868273735
vt  0.307324588299 0.164231300354 0.759381949902
vt  0.338625371456 0.164231300354 0.759436666965
vt  0.55755507946 0.164231300354 0.76079761982
vt  0.620022416115 0.164231300354 0.761267125607
vt  0.338615059853 0.195038676262 0.866604626179
vt  0.307317018509 0.249833583832 0.98750013113
vt  0.36989274621 0.249833583832 0.987655758858
vt  0.432453006506 0.249833583832 0.987979710102
vt  0.494988679886 0.249833583832 0.988422095776
vt  0.557494401932 0.249833583832 0.988915801048
vt  0.619969248772 0.249833524227 0.98938536644
vt  0.682417154312 0.249833524227 0.989759385586
vt  0.744846045971 0.249833524227 0.989981234074
vt  0.807266712189 0.249833524227 0.990017175674
vt  0.869691193104 0.249833524227 0.989861667156
vt  0.932130932808 0.249833583832 0.989538550377
vt  0.994595110416 0.249833583832 0.989096581936
vt  0.057089269161 0.249833583832 0.988603174686
vt  0.119614236057 0.249833583832 0.988133251667
vt  0.182166293263 0.249833583832 0.98775857687
vt  0.244737520814 0.249833583832 0.987536132336
vt  0.291712671518 0.062163829803 0.111179620028
vt  0.307416856289 0.067392110825 0.198749825358
vt  0.323315739632 0.062163829803 0.111210547388
vt  0.338860929012 0.067392110825 0.198804795742
vt  0.354902923107 0.062163829803 0.111289478838
vt  0.370292574167 0.067392110825 0.198906257749
vt  0.3864608109 0.062163829803 0.111413389444
vt  0.401704579592 0.067392110825 0.199050232768
vt  0.417977631092 0.062163829803 0.111577250063
vt  0.433090776205 0.067392110825 0.199231177568
vt  0.449442893267 0.062163829803 0.111774720252
vt  0.464445948601 0.067392110825 0.199442028999
vt  0.480848401785 0.062163829803 0.111997947097
vt  0.495766043663 0.067392110825 0.199674457312
vt  0.51218855381 0.062163829803 0.112238176167
vt  0.527048587799 0.067392110825 0.19991967082
vt  0.543460309505 0.062163829803 0.1124862656
vt  0.558292329311 0.067392110825 0.200168058276
vt  0.574663162231 0.062163829803 0.112732574344
vt  0.589497745037 0.067392110825 0.200410202146
vt  0.605799436569 0.062163829803 0.11296774447
vt  0.620666623116 0.067392110825 0.20063687861
vt  0.63687390089 0.062163829803 0.113182678819
vt  0.651802182198 0.067392110825 0.200839146972
vt  0.66789329052 0.062163829803 0.113369360566
vt  0.682908892632 0.067392110825 0.201009660959
vt  0.698866784573 0.062163829803 0.113520845771
vt  0.713992238045 0.067392110825 0.20114184916
vt  0.729804694653 0.062163829803 0.113631337881
vt  0.74505853653 0.067392110825 0.201230540872
vt  0.760718941689 0.062163829803 0.113696679473
vt  0.776114881039 0.067392110825 0.201272591949
vt  0.791621983051 0.062163829803 0.113714575768
vt  0.807168364525 0.067392110825 0.201266273856
vt  0.822526633739 0.062163829803 0.113684386015
vt  0.838226556778 0.067392110825 0.201212033629
vt  0.853445827961 0.062163829803 0.113607026637
vt  0.869296610355 0.067392110825 0.201111763716
vt  0.884391903877 0.062163829803 0.113485597074
vt  0.900385439396 0.067392110825 0.200969234109
vt  0.915376186371 0.062163829803 0.113324441016
vt  0.931499123573 0.067392110825 0.200789809227
vt  0.94640904665 0.062163829803 0.113129764795
vt  0.962642848492 0.067392110825 0.200580433011
vt  0.977498829365 0.062163829803 0.112908743322
vt  0.993820905685 0.067392110825 0.200349017978
vt  0.008651936427 0.062163829803 0.112669937313
vt  0.025036074221 0.067392110825 0.200104355812
vt  0.039872419089 0.062163829803 0.112422250211
vt  0.05628984794 0.067392110825 0.199855864048
vt  0.071161858737 0.062163829803 0.112175248563
vt  0.087582185864 0.067392110825 0.199613064528
vt  0.102519243956 0.062163829803 0.111938424408
vt  0.118911594152 0.067392110825 0.199385330081
vt  0.133940830827 0.062163829803 0.111721113324
vt  0.150275245309 0.067392110825 0.19918140769
vt  0.165420234203 0.062163829803 0.11153164506
vt  0.181668624282 0.067392110825 0.199009388685
vt  0.1969486624 0.062163829803 0.111377432942
vt  0.213086292148 0.067392110825 0.19887585938
vt  0.228515341878 0.062163829803 0.11126472801
vt  0.244521826506 0.067392110825 0.198786079884
vt  0.260107964277 0.062163829803 0.111197903752
vt  0.275967925787 0.067392110825 0.198743462563
vt  0.323072820902 0.07583039999 0.284405976534
vt  0.370057106018 0.08723372221 0.375461637974
vt  0.385825574398 0.07583039999 0.284607559443
vt  0.432715475559 0.08723372221 0.375785887241
vt  0.448515415192 0.07583039999 0.284967154264
vt  0.49530890584 0.08723372221 0.376228570938
vt  0.511113524437 0.07583039999 0.285429626703
vt  0.557823479176 0.08723372221 0.376722157001
vt  0.573605358601 0.07583039999 0.285924166441
vt  0.620257139206 0.08723372221 0.377191364765
vt  0.635992646217 0.07583039999 0.286375463009
vt  0.682620346546 0.08723372221 0.377564936876
vt  0.698292970657 0.07583039999 0.286715209484
vt  0.744933903217 0.08723372221 0.377786338329
vt  0.760536551476 0.07583039999 0.286892265081
vt  0.807226061821 0.08723372221 0.37782227993
vt  0.822762191296 0.07583039999 0.286879777908
vt  0.869528114796 0.08723372221 0.377667188644
vt  0.885011076927 0.07583039999 0.286679774523
vt  0.931869983673 0.08723372221 0.377344578505
vt  0.947321116924 0.07583039999 0.286322295666
vt  0.994275689125 0.08723372221 0.376903116703
vt  0.009721259587 0.07583039999 0.285861253738
vt  0.056759826839 0.08723372221 0.376409888268
vt  0.072227030993 0.07583039999 0.285366624594
vt  0.119325041771 0.08723372221 0.375939756632
vt  0.134838104248 0.07583039999 0.284913688898
vt  0.181961581111 0.08723372221 0.375564604998
vt  0.197537913918 0.07583039999 0.28457185626
vt  0.260296046734 0.07583039999 0.284393370152
vt  0.32301273942 0.100698471069 0.462621718645
vt  0.229010209441 0.100698471069 0.462675511837
vt  0.307327628136 0.147931933403 0.694541156292
vt  0.385603517294 0.131576836109 0.623212873936
vt  0.416901499033 0.131576836109 0.623375713825
vt  0.448190391064 0.131576776505 0.62357199192
vt  0.479468792677 0.131576836109 0.62379437685
vt  0.51073551178 0.131576836109 0.624034106731
vt  0.557579636574 0.147931933403 0.695956707001
vt  0.573232114315 0.131576836109 0.624528706074
vt  0.60446202755 0.131576836109 0.624764561653
vt  0.698089301586 0.131576776505 0.625320911407
vt  0.729282736778 0.131576776505 0.625432252884
vt  0.760471761227 0.131576776505 0.62549829483
vt  0.791658639908 0.131576776505 0.625516414642
vt  0.822845876217 0.131576836109 0.625485658646
vt  0.85403585434 0.131576836109 0.625407755375
vt  0.885230779648 0.131576776505 0.625285208225
vt  0.916432857513 0.131576776505 0.625122845173
vt  0.947643876076 0.131576836109 0.624927163124
vt  0.978865385056 0.131576836109 0.624705135822
vt  0.01009841077 0.131576776505 0.624465584755
vt  0.04134368524 0.131576836109 0.624217748642
vt  0.072601377964 0.131576836109 0.623971104622
vt  0.103871203959 0.131576776505 0.623735010624
vt  0.135152384639 0.131576776505 0.623518586159
vt  0.166443809867 0.131576836109 0.623330354691
vt  0.197743833065 0.131576836109 0.623177289963
vt  0.229050517082 0.131576836109 0.623065531254
vt  0.307322263718 0.180068850517 0.816915154457
vt  0.322975277901 0.164231300354 0.759412229061
vt  0.36991378665 0.180068850517 0.817070841789
vt  0.448141336441 0.164231300354 0.759972333908
vt  0.510678350925 0.164231300354 0.760434389114
vt  0.322968035936 0.195038735867 0.866581499577
vt  0.47938400507 0.195038676262 0.867363750935
vt  0.573143661022 0.195038676262 0.868098199368
vt  0.698040962219 0.195038676262 0.868890702724
vt  0.791660964489 0.195038676262 0.869086205959
vt  0.854072570801 0.195038676262 0.868977248669
vt  0.916498422623 0.195038676262 0.868692457676
vt  0.978949904442 0.195038676262 0.868274688721
vt  0.041434384882 0.195038676262 0.867787122726
vt  0.103954218328 0.195038676262 0.867304325104
vt  0.166506484151 0.195038676262 0.866899728775
vt  0.26037722826 0.195038676262 0.866568803787
vt  0.51062810421 0.221222281456 0.941422879696
vt  0.432467669249 0.25037252903 0.905583143234
vt  0.588753163815 0.25037252903 0.90676176548
vt  0.744850993156 0.25037252903 0.907584667206
vt  0.900896370411 0.25037252903 0.907322108746
vt  0.057070851326 0.25037252903 0.906206667423
vt  0.276025652885 0.25037252903 0.90509724617
vt  0.316207766533 0.180288732052 0.816691875458
vt  0.320827335119 0.182834386826 0.825639009476
vt  0.331555604935 0.184252500534 0.82983648777
vt  0.323260784149 0.177112400532 0.806135654449
vt  0.316604137421 0.179355859756 0.813393235207
vt  0.347863137722 0.183465123177 0.82729524374
vt  0.34422814846 0.176631510258 0.803608357906
vt  0.3202432096 0.177743136883 0.807929098606
vt  0.350832283497 0.182834386826 0.825497746468
vt  0.317984551191 0.178499102592 0.810382246971
vt  0.338618189096 0.184294521809 0.830980658531
vt  0.354267537594 0.179134368896 0.813629508018
vt  0.338620841503 0.176290154457 0.803242683411
vt  0.326075345278 0.176737904549 0.804231643677
vt  0.322971850634 0.177173495293 0.806427836418
vt  0.320721447468 0.177643179893 0.807648360729
vt  0.331047564745 0.184825181961 0.731501221657
vt  0.35728263855 0.179928421974 0.716798603535
vt  0.349551409483 0.184037685394 0.729274094105
vt  0.345467746258 0.17720413208 0.705416500568
vt  0.318155705929 0.178315758705 0.710065186024
vt  0.316140890121 0.182650983334 0.725042462349
vt  0.321305096149 0.183844804764 0.729537010193
vt  0.339059114456 0.184867143631 0.732637584209
vt  0.353643327951 0.183196783066 0.727106690407
vt  0.355032324791 0.178888440132 0.71258097887
vt  0.339079469442 0.176862716675 0.704899966717
vt  0.324786156416 0.177310585976 0.706054508686
vt  0.321256995201 0.177746117115 0.70839881897
vt  0.313703209162 0.180641531944 0.718398928642
vt  0.561873376369 0.148475766182 0.697485625744
vt  0.606958150864 0.147542834282 0.69418412447
vt  0.599044442177 0.145299434662 0.684017241001
vt  0.562671065331 0.149408638477 0.701130986214
vt  0.571026444435 0.151652097702 0.710459291935
vt  0.605280816555 0.146686077118 0.690707325935
vt  0.594743907452 0.144818484783 0.681850731373
vt  0.575268149376 0.152132987976 0.71241915226
vt  0.602601528168 0.145930111408 0.687206983566
vt  0.589852750301 0.144511938095 0.681041896343
vt  0.58881008625 0.152468919754 0.714247703552
vt  0.604427933693 0.150457859039 0.706371724606
vt  0.605438292027 0.14676618576 0.691028773785
vt  0.604434192181 0.146447122097 0.689826667309
vt  0.602733194828 0.145967125893 0.687391459942
vt  0.570831477642 0.145206689835 0.683719158173
vt  0.565082848072 0.146331310272 0.688188135624
vt  0.601518511772 0.145982027054 0.586565554142
vt  0.608747303486 0.147368729115 0.59375756979
vt  0.561405360699 0.150947988033 0.607374966145
vt  0.573844373226 0.152815580368 0.614650309086
vt  0.605648517609 0.146612763405 0.590020656586
vt  0.567295372486 0.152090549469 0.611811518669
vt  0.589541435242 0.153151512146 0.616347253323
vt  0.603663623333 0.151969194412 0.611736297607
vt  0.609811961651 0.15038216114 0.606158614159
vt  0.610930025578 0.1486145854 0.599091649055
vt  0.589598178864 0.145173728466 0.583244860172
vt  0.57136541605 0.145624041557 0.585328161716
vt  0.561921060085 0.147013902664 0.591063141823
vt  0.558516085148 0.1486145854 0.59845083952
vt  -0.212359428406 0.057964026928 0.001267897664
vt  -0.006716907024 0.062822580338 0.128941208124
vt  -0.006179094315 0.067392110825 0.200349017978
vt  -0.006716907024 0.062822580338 0.128941208124
vt  -0.212359428406 0.057964026928 0.001267897664
vt  -0.212359428406 0.057964026928 0.001267897664
vt  -0.006179094315 0.067392110825 0.200349017978
vt  -0.006179094315 0.067392110825 0.200349017978
vt  -0.212359428406 0.057964026928 0.001267897664
vt  -0.212359428406 0.057964026928 0.001267897664
vt  -0.212359428406 0.057964026928 0.001267897664
vt  -0.212359428406 0.057964026928 0.001267897664
vt  -0.212359428406 0.057964026928 0.001267897664
vt  -0.212359428406 0.057964026928 0.001267897664
vt  -0.212359428406 0.057964026928 0.001267897664
vt  -0.212359428406 0.057964026928 0.001267897664
vt  -0.212359428406 0.057964026928 0.001267897664
vt  -0.212359428406 0.057964026928 0.001267897664
vt  -0.212359428406 0.057964026928 0.001267897664
vt  -0.212359428406 0.057964026928 0.001267897664
vt  -0.212359428406 0.057964026928 0.001267897664
vt  -0.212359428406 0.057964026928 0.001267897664
vt  -0.212359428406 0.057964026928 0.001267897664
vt  -0.212359428406 0.057964026928 0.001267897664
vt  -0.005724310875 0.08723372221 0.376903116703
vt  -0.052678883076 0.07583039999 0.286322295666
vt  -0.037357151508 0.067392110825 0.200580433011
vt  -0.052678883076 0.07583039999 0.286322295666
vt  -0.037357151508 0.067392110825 0.200580433011
vt  -0.006179094315 0.067392110825 0.200349017978
vt  -0.006179094315 0.067392110825 0.200349017978
vt  -0.005724310875 0.08723372221 0.376903116703
vt  -0.005724310875 0.08723372221 0.376903116703
vt  -0.021134614944 0.131576836109 0.624705135822
vt  -0.005724310875 0.08723372221 0.376903116703
vt  -0.021134614944 0.131576836109 0.624705135822
vt  -0.021050095558 0.195038676262 0.868274688721
vt  -0.021050095558 0.195038676262 0.868274688721
vt  -0.005404889584 0.249833583832 0.989096581936
vt  -0.021050095558 0.195038676262 0.868274688721
vt  -0.099103629589 0.25037252903 0.907322108746
vt  -0.005404889584 0.249833583832 0.989096581936
vt  -0.005404889584 0.249833583832 0.989096581936
vt  -0.005404889584 0.249833583832 0.989096581936
vt  -0.099103629589 0.25037252903 0.907322108746
vt  0.290789455175 0.860607385635 0.989683747292
vt  0.290411442518 0.942035913467 0.691627323627
vt  0.289989858866 0.942035913467 0.517764508724
vt  0.290495485067 0.860607385635 0.741303026676
vt  0.416486501694 0.860607385635 0.986946105957
vt  0.416408509016 0.942035913467 0.688883841038
vt  0.416321337223 0.942035913467 0.515014111996
vt  0.416425853968 0.860607385635 0.73856061697
vt  0.542290866375 0.860607385635 0.988094627857
vt  0.542560458183 0.942035913467 0.690035462379
vt  0.542861461639 0.942035913467 0.516169130802
vt  0.542500436306 0.860607385635 0.739711523056
vt  0.667724847794 0.860607385635 0.992446601391
vt  0.668178915977 0.942035913467 0.694393455982
vt  0.668683946133 0.942035913467 0.52053385973
vt  0.668078005314 0.860607385635 0.744068205357
vt  0.792537331581 0.860607385635 0.997432172298
vt  0.79290831089 0.942035913467 0.69937568903
vt  0.793319046497 0.942035913467 0.525512695313
vt  0.79282605648 0.860607385635 0.749051392078
vt  0.916844785213 0.860607385635 1.000140666962
vt  0.916920244694 0.942035973072 0.702077865601
vt  0.917003691196 0.942035973072 0.528208196163
vt  0.916903555393 0.860607385635 0.751755297184
vt  0.041049644351 0.860607385635 0.999006032944
vt  0.040787186474 0.942035973072 0.700946033001
vt  0.040497001261 0.942035973072 0.527079582214
vt  0.040845401585 0.860607385635 0.750622808933
vt  0.16561126709 0.860607385635 0.994683027267
vt  0.165159657598 0.942035973072 0.696629285812
vt  0.164658367634 0.942035973072 0.52276968956
vt  0.165259927511 0.860607385635 0.746304571629
vt  -0.083155214787 0.860607385635 1.000140666962
vt  -0.083155214787 0.860607385635 1.000140666962
vt  -0.083079755306 0.942035973072 0.702077865601
vt  -0.083079755306 0.942035973072 0.702077865601
vt  -0.083079755306 0.942035973072 0.702077865601
vt  -0.082996308804 0.942035973072 0.528208196163
vt  -0.082996308804 0.942035973072 0.528208196163
vt  -0.082996308804 0.942035973072 0.528208196163
vt  -0.083096444607 0.860607385635 0.751755297184
vt  -0.083096444607 0.860607385635 0.751755297184
vt  -0.083096444607 0.860607385635 0.751755297184
vt  -0.083155214787 0.860607385635 1.000140666962
# 488 texture vertices

vn  0.000000055706 -0.121869176626 0.992546021938
vn  0.000000111413 -0.243738353252 1.985092043877
vn  0.000000111413 -0.243738353252 1.985092043877
vn  0.000000111413 -0.243738353252 1.985092043877
vn  0.000000111413 -0.243738353252 1.985092043877
vn  0.000000111413 -0.243738353252 1.985092043877
vn  0.000000111413 -0.243738353252 1.985092043877
vn  0.000000111413 -0.243738353252 1.985092043877
vn  0.000000111413 -0.243738353252 1.985092043877
vn  0.000000111413 -0.243738353252 1.985092043877
vn  0.000000111413 -0.243738353252 1.985092043877
vn  0.000000111413 -0.243738353252 1.985092043877
vn  0.000000111413 -0.243738353252 1.985092043877
vn  0.000000111413 -0.243738353252 1.985092043877
vn  0.000000111413 -0.243738353252 1.985092043877
vn  0.000000111413 -0.243738353252 1.985092043877
vn  2.221980333328 -1.913577914238 -0.234957739711
vn  1.245712757111 -2.645164489746 -0.324785083532
vn  0.054050281644 -2.919378042221 -0.358454167843
vn  -1.146957993507 -2.688804864883 -0.330143272877
vn  -2.149646520615 -1.993312716484 -0.2447476089
vn  -2.780642271042 -0.953158557415 -0.117032825947
vn  -2.930839061737 0.25180503726 0.0309179537
vn  -2.57426738739 1.413229107857 0.173522725701
vn  -1.772581577301 2.330293655396 0.286123901606
vn  -0.664399981499 2.844428777695 0.349251627922
vn  0.558661997318 2.866736412048 0.351990580559
vn  1.685126662254 2.393359422684 0.293867141008
vn  2.520217418671 1.506148338318 0.184931382537
vn  2.919539690018 0.358510673046 0.044019315392
vn  2.81404709816 -0.851116359234 -0.104504041374
vn  -0.000000055706 0.121869176626 -0.992546021938
vn  0.363747447729 0.921996176243 -0.132704585791
vn  0.802139282227 0.440973699093 -0.402634352446
vn  0.388618290424 0.740907490253 0.547751307487
vn  0.898951232433 0.33129042387 0.286588668823
vn  -0.00000013774 0.637285351753 -0.770627677441
vn  -0.436491221189 0.880053400993 -0.187032625079
vn  -0.32646265626 0.812218248844 0.483449459076
vn  -0.000000103421 0.300198197365 0.953876674175
vn  0.538619220257 -0.102680906653 0.83626884222
vn  0.850700199604 -0.468931823969 0.237511947751
vn  0.865081787109 -0.27761426568 -0.417808204889
vn  0.414209067822 0.110922880471 -0.903397262096
vn  -0.414209127426 0.110923148692 -0.903397262096
vn  -0.865081906319 0.370444476604 -0.338236659765
vn  -0.850700199604 0.397543340921 0.343901753426
vn  -0.538619101048 -0.102680668235 0.836269021034
vn  0.000000394488 -0.522044479847 0.852918088436
vn  0.326462954283 -0.905048787594 0.272595584393
vn  0.436491191387 -0.808664917946 -0.394380986691
vn  0.000000001722 -0.431923776865 -0.901909947395
vn  -0.388617932796 -0.851412534714 0.35223916173
vn  -0.898951172829 -0.390781790018 0.197929367423
vn  -0.363747417927 -0.862504839897 -0.351813614368
vn  -0.802139163017 -0.330469250679 -0.497355490923
vn  0.970143675804 0.240722581744 0.029557064176
vn  1.940287351608 0.4814453125 0.059114146978
vn  0.727613151073 -0.513186395168 -1.790870666504
vn  -0.485069721937 -1.925822377205 -0.236461341381
vn  1.940287351608 0.4814453125 0.059114146978
vn  0.970143675804 0.240722745657 0.029557082802
vn  0.363806575537 -0.256593197584 -0.895435392857
vn  -0.242534995079 -0.962911188602 -0.118230670691
vn  1.414213180542 1.403672099113 0.172349408269
vn  0.707106590271 0.701836049557 0.086174704134
vn  -0.000000055706 0.121869176626 -0.992546021938
vn  -0.707106590271 -0.701836049557 -0.086174681783
vn  0.485060453415 1.925824761391 0.236461728811
vn  0.242530360818 0.962912321091 0.118230856955
vn  -0.363806694746 0.465596497059 -0.806761682034
vn  -0.970142483711 -0.240727350116 -0.029557654634
vn  1.414213657379 -1.403671979904 -0.17234916985
vn  0.70710682869 -0.701835989952 -0.086174584925
vn  -0.000000055706 0.121869176626 -0.992546021938
vn  -0.70710682869 0.701835989952 0.086174622178
vn  0.70710682869 -0.701835989952 -0.086174584925
vn  1.414213657379 -1.403671979904 -0.17234916985
vn  -0.000000111413 0.243738353252 -1.985092043877
vn  -1.414213657379 1.403671979904 0.172349244356
vn  -1.414213180542 -1.403672099113 -0.17234942317
vn  -0.707106590271 -0.701836049557 -0.086174711585
vn  -0.000000055706 0.121869176626 -0.992546021938
vn  0.707106590271 0.701836049557 0.086174666882
vn  -0.707106590271 -0.701836049557 -0.086174711585
vn  -1.414213180542 -1.403672099113 -0.17234942317
vn  -0.000000111413 0.243738353252 -1.985092043877
vn  1.414213180542 1.403672099113 0.172349333763
vn  -1.414213657379 1.403671979904 0.172349616885
vn  -0.70710682869 0.701835989952 0.086174808443
vn  -0.000000055706 0.121869176626 -0.992546021938
vn  0.70710682869 -0.701835930347 -0.086174942553
vn  -0.70710682869 0.701835989952 0.086174808443
vn  -1.414213657379 1.403671979904 0.172349616885
vn  -0.000000111413 0.243738353252 -1.985092043877
vn  1.414213657379 -1.403671860695 -0.172349885106
vn  -0.000000111413 0.243738353252 -1.985092043877
vn  -0.000000055706 0.121869176626 -0.992546021938
vn  -0.699920713902 -0.677373588085 -0.226441457868
vn  -0.000000055706 0.121869176626 -0.992546021938
vn  -0.000000111413 0.243738353252 -1.985092043877
vn  -1.399841427803 -1.35474717617 -0.452882915735
vn  -0.000000111413 0.243738353252 -1.985092043877
vn  -0.000000055706 0.121869176626 -0.992546021938
vn  -0.69992095232 0.712033748627 -0.055843621492
vn  -0.000000055706 0.121869176626 -0.992546021938
vn  -0.000000111413 0.243738353252 -1.985092043877
vn  -1.39984190464 1.424067497253 -0.111687242985
vn  0.000000376684 0.243738844991 -1.985092043877
vn  0.000000188342 0.121869422495 -0.992546021938
vn  0.699920654297 0.712033808231 -0.055843614042
vn  0.000000188342 0.121869422495 -0.992546021938
vn  0.000000376684 0.243738844991 -1.985092043877
vn  1.399841308594 1.424067616463 -0.111687250435
vn  -0.000000111413 0.243738353252 -1.985092043877
vn  -0.000000055706 0.121869176626 -0.992546021938
vn  0.699920892715 -0.677373528481 -0.226441562176
vn  -0.000000055706 0.121869176626 -0.992546021938
vn  -0.000000111413 0.243738353252 -1.985092043877
vn  1.399841785431 -1.354747056961 -0.452883124352
vn  -0.000000071171 -0.121869087219 0.992546021938
vn  0.859130322933 0.860040545464 1.585513591766
vn  1.743457436562 2.082902669907 2.851558446884
vn  1.238842487335 2.374440193176 2.887354850769
vn  0.686607122421 2.562669038773 2.910465955734
vn  0.107996039093 2.640346765518 2.92000412941
vn  -0.474772334099 2.604491472244 2.915601730347
vn  -1.039301872253 2.456477165222 2.897427558899
vn  -1.563874721527 2.202001571655 2.866182088852
vn  -2.028358459473 1.850833892822 2.823064088821
vn  -2.414889574051 1.416478514671 2.769731521606
vn  -2.70862531662 0.915609896183 2.708232879639
vn  -2.898262262344 0.367498099804 2.64093375206
vn  -2.976523637772 -0.20679564774 2.570419073105
vn  -2.940400123596 -0.785224437714 2.499397277832
vn  -2.791275024414 -1.345544576645 2.430598497391
vn  -2.534887313843 -1.86620926857 2.366669178009
vn  -2.181086301804 -2.32722735405 2.310062885284
vn  -1.743458509445 -2.710885047913 2.262954950333
vn  -1.238844394684 -3.002421855927 2.227159738541
vn  -0.686605513096 -3.190651416779 2.20404791832
vn  -0.107994236052 -3.268329143524 2.1945104599
vn  0.474777668715 -3.232473134995 2.198912620544
vn  1.039289712906 -3.084464550018 2.217085838318
vn  1.563879013062 -2.829982042313 2.248332262039
vn  2.028359651566 -2.478815793991 2.291450023651
vn  2.414895296097 -2.044453620911 2.344783306122
vn  2.708621740341 -1.543599247932 2.406280517578
vn  2.898263931274 -0.995479822159 2.473580598831
vn  2.976524829865 -0.421174973249 2.544095754623
vn  2.940400123596 0.157238841057 2.615116357803
vn  2.791277647018 0.717555522919 2.683914899826
vn  0.600718379021 0.412622332573 0.684748113155
vn  -0.873717427254 0.421317607164 0.243123784661
vn  -0.955180764198 0.201341018081 0.217005386949
vn  0.629486858845 0.738349556923 0.242045104504
vn  0.372455686331 0.887802839279 0.270337700844
vn  -0.7900801301 0.571754932404 0.221064776182
vn  -0.941118359566 0.290441244841 0.173031777143
vn  0.458681255579 0.859005510807 0.227421835065
vn  1.238767743111 1.476608514786 0.365414321423
vn  1.700290441513 4.526688575745 1.006698131561
vn  -0.318512439728 3.843251943588 0.873867690563
vn  -0.669216811657 1.840790867805 0.392828166485
vn  -2.23603105545 1.884305000305 0.456212729216
vn  -1.850958347321 0.632179617882 0.293384581804
vn  -0.989827215672 0.084134139121 0.11473172158
vn  -1.829745173454 -0.775825738907 0.10290325433
vn  -1.323434591293 -1.470610380173 -0.001247901237
vn  -0.664053440094 -1.86299943924 -0.049426913261
vn  0.09642405808 -1.975066184998 -0.063187114894
vn  0.842223703861 -1.78974878788 -0.040433265269
vn  1.459800720215 -1.33526134491 0.015371000394
vn  1.855136871338 -0.680793821812 0.095729291439
vn  1.943853855133 0.167318418622 0.204653844237
vn  2.425964832306 1.579017519951 0.474111109972
vn  0.394203543663 0.458824396133 0.796293497086
vn  0.819422721863 0.244932606816 0.518222033978
vn  0.464926809072 0.401216119528 0.789220094681
vn  0.468511968851 0.630453944206 0.618889451027
vn  0.359535902739 0.481815457344 0.799116671085
vn  0.322716742754 0.707802295685 0.628386378288
vn  0.240332558751 0.540456235409 0.806316971779
vn  0.164519235492 0.755433261395 0.634234666824
vn  0.111891120672 0.574888944626 0.810544669628
vn  0.000000435678 0.77151620388 0.636209487915
vn  -0.02084685117 0.583789110184 0.81163752079
vn  -0.16451895237 0.755433320999 0.634234845638
vn  -0.152785822749 0.566815257072 0.809553444386
vn  -0.32271784544 0.707801878452 0.628386378288
vn  -0.278856247663 0.524618089199 0.804372310638
vn  -0.46851208806 0.63045412302 0.618889153004
vn  -0.39420825243 0.458820521832 0.796293497086
vn  -0.596304118633 0.526359736919 0.606107831001
vn  -0.494410425425 0.371951431036 0.785627365112
vn  -0.701178312302 0.399522483349 0.5905341506
vn  -0.575610816479 0.267351567745 0.772783994675
vn  -0.779106736183 0.254814893007 0.572766900063
vn  -0.634693205357 0.14903511107 0.758256494999
vn  -0.827096819878 0.097793519497 0.553486347198
vn  -0.669384658337 0.021547196433 0.742603302002
vn  -0.843300163746 -0.065496981144 0.533436775208
vn  -0.678350687027 -0.110202074051 0.72642660141
vn  -0.827096223831 -0.228790059686 0.513387441635
vn  -0.661249697208 -0.241153433919 0.710347533226
vn  -0.779107093811 -0.385809838772 0.494107842445
vn  -0.618735849857 -0.366283476353 0.694983482361
vn  -0.701178252697 -0.530517756939 0.476339846849
vn  -0.552444159985 -0.48077583313 0.680925667286
vn  -0.596302032471 -0.657357275486 0.460765630007
vn  -0.464926451445 -0.580227673054 0.668714404106
vn  -0.468512892723 -0.761449098587 0.447984874249
vn  -0.359537184238 -0.660826206207 0.658818185329
vn  -0.322717726231 -0.83879762888 0.438487738371
vn  -0.240332916379 -0.719467580318 0.651618123055
vn  -0.164519995451 -0.886428654194 0.432639658451
vn  -0.111893102527 -0.753900229931 0.647390186787
vn  0.000001394367 -0.902511954308 0.430664509535
vn  0.020846636966 -0.762800574303 0.646297454834
vn  0.164519935846 -0.886428892612 0.432639181614
vn  0.152789160609 -0.745825886726 0.648381769657
vn  0.322716712952 -0.838798046112 0.438487827778
vn  0.278851598501 -0.703631877899 0.653562307358
vn  0.4685125947 -0.761449337006 0.44798502326
vn  0.39420440793 -0.637835204601 0.661641120911
vn  0.596302747726 -0.657356321812 0.460766136646
vn  0.494406908751 -0.550966978073 0.672307133675
vn  0.701178133488 -0.530517816544 0.476340085268
vn  0.575610876083 -0.446363300085 0.68515086174
vn  0.779107749462 -0.385808825493 0.494107872248
vn  0.634692728519 -0.328047662973 0.699678242207
vn  0.827096760273 -0.228789374232 0.513386964798
vn  0.66938406229 -0.200564280152 0.71533125639
vn  0.843300104141 -0.065498225391 0.533436655998
vn  0.678350865841 -0.068809211254 0.731508791447
vn  0.827096283436 0.097795680165 0.553486645222
vn  0.661248743534 0.062145315111 0.74758797884
vn  0.779107570648 0.254813283682 0.572766304016
vn  0.618736207485 0.187271237373 0.762951314449
vn  0.685875654221 0.502791941166 0.52609360218
vn  0.514664828777 0.741056621075 0.431224793196
vn  0.275430083275 0.882096171379 0.382157385349
vn  0.195139959455 0.866324067116 0.459785461426
vn  -0.053761146963 0.924575150013 0.377187341452
vn  -0.170213699341 0.871245324612 0.460389643908
vn  -0.418442249298 0.831348180771 0.365740478039
vn  -0.509654462337 0.737019062042 0.443908840418
vn  -0.741975069046 0.58103954792 0.334463685751
vn  -0.771504878998 0.484079986811 0.412851929665
vn  -0.911069273949 0.284990638494 0.297880828381
vn  -0.915900409222 0.150936111808 0.371946960688
vn  -0.962885916233 -0.086429946125 0.255695730448
vn  -0.920858621597 -0.211694195867 0.327421456575
vn  -0.869724035263 -0.447216004133 0.208752527833
vn  -0.785624325275 -0.548604726791 0.286054074764
vn  -0.643389225006 -0.745949685574 0.172072663903
vn  -0.530785739422 -0.808503270149 0.254142701626
vn  -0.319104582071 -0.935974419117 0.148740500212
vn  -0.195140346885 -0.951822638512 0.236545145512
vn  0.053761385381 -0.988361120224 0.142308205366
vn  0.1702144593 -0.956743717194 0.235941037536
vn  0.418442577124 -0.895134091377 0.153755038977
vn  0.509654760361 -0.822517514229 0.252421796322
vn  0.719419240952 -0.670486569405 0.181338325143
vn  0.771504938602 -0.569578647614 0.28347864747
vn  0.910871148109 -0.348618686199 0.220858737826
vn  0.915900528431 -0.236434772611 0.324383556843
vn  0.964787840843 0.009327427484 0.262863397598
vn  0.921521663666 0.133856683969 0.364527016878
vn  0.775365233421 0.487343788147 0.401627331972
vn  0.612399280071 0.71987169981 0.326728463173
vn  0.881904900074 0.367744714022 0.294969916344
vn  0.627071380615 0.729747891426 0.272486895323
vn  0.253787994385 0.91636288166 0.309629380703
vn  0.029473889619 0.957203865051 0.287909179926
vn  -0.209783196449 0.924587368965 0.318007826805
vn  -0.376245260239 0.879206478596 0.292293250561
vn  -0.600782513618 0.743644893169 0.293347030878
vn  -0.734272956848 0.630613982677 0.251334637403
vn  -0.77820789814 0.568806529045 0.266179591417
vn  -0.909665107727 0.339698135853 0.238986328244
vn  -0.973525702953 -0.146881267428 0.175138086081
vn  -0.907895863056 -0.395918905735 0.137742400169
vn  -0.817506372929 -0.564141869545 0.115874223411
vn  -0.69418156147 -0.712229609489 0.104118213058
vn  -0.532228529453 -0.842128634453 0.086900725961
vn  -0.37566998601 -0.923449516296 0.078183569014
vn  -0.17590123415 -0.981934547424 0.069734714925
vn  0.000035073692 -0.997611105442 0.069077685475
vn  0.207205221057 -0.975754261017 0.070493645966
vn  0.375735074282 -0.92342287302 0.078186906874
vn  0.558766841888 -0.824528634548 0.089061744511
vn  0.694231688976 -0.71218007803 0.104124180973
vn  0.825261056423 -0.551280558109 0.122612349689
vn  0.907038509846 -0.396041512489 0.142941117287
vn  0.966116845608 -0.197609528899 0.166037663817
vn  0.981756687164 -0.023137530312 0.188727959991
vn  0.964558303356 0.159985870123 0.209837153554
vn  0.873156666756 0.429259359837 0.230940341949
vn  0.637047708035 0.736852228642 0.226315498352
vn  0.540670335293 0.801487922668 0.255523711443
vn  0.211388483644 0.942985057831 0.257087141275
vn  -0.083980903029 0.957912266254 0.274501532316
vn  -0.582326769829 0.775513827801 0.243872210383
vn  0.614804029465 0.76419788599 0.194979935884
vn  -0.350240498781 0.90742868185 0.232173666358
vn  -0.851972222328 0.493408232927 0.175190061331
vn  -0.977582454681 -0.184220448136 0.101956345141
vn  -0.730107486248 -0.681785702705 0.045943833888
vn  -0.392622828484 -0.919579267502 0.014864292927
vn  -0.014145023189 -0.999887287617 0.005003735423
vn  0.366486936808 -0.930324494839 0.013544980437
vn  0.691324174404 -0.721481204033 0.039187677205
vn  0.910913467407 -0.405151903629 0.078028000891
vn  0.990561783314 0.032458309084 0.133167147636
vn  0.840258836746 0.508248984814 0.188806131482
vn  -0.593825757504 0.780580461025 0.195102334023
vn  -0.091794006526 1.223666787148 -5.860217094421
vn  -0.398155987263 0.78370398283 -4.908814907074
vn  -0.427153855562 0.452798992395 -5.954866886139
vn  -0.013589525595 0.172079518437 -4.983912944794
vn  0.331223368645 0.336169421673 -4.965695381165
vn  0.310336977243 0.877130687237 -4.895641326904
vn  1.179047346115 1.545487761497 0.470339864492
vn  2.217660665512 3.190339326859 0.934123814106
vn  1.037152886391 1.644147157669 0.46970552206
vn  1.525243878365 2.472638368607 0.748121619225
vn  1.767298340797 2.313083410263 0.72544914484
vn  0.847548365593 1.745329022408 0.485269904137
vn  0.846024155617 1.739042520523 0.509874880314
vn  1.178617238998 1.541127920151 0.485576659441
vn  1.385457038879 3.634803771973 0.906176149845
vn  1.178641438484 1.541111826897 0.485568910837
vn  0.933113217354 1.699934363365 0.479697406292
vn  1.091012239456 2.682911157608 0.767688393593
vn  0.931426227093 1.693734645844 0.50431150198
vn  1.016826152802 1.64842736721 0.498748630285
vn  1.687047600746 2.365330934525 0.734946012497
vn  1.178607463837 1.541134476662 0.485579490662
vn  1.522144079208 2.480335950851 0.728692531586
vn  0.85714250803 1.738481163979 0.492918372154
vn  0.854399979115 1.739047884941 0.495681703091
vn  0.423009514809 0.869521677494 0.254940360785
vn  0.589314520359 0.770560026169 0.242786303163
vn  1.159043669701 1.559844851494 0.472631782293
vn  1.08989918232 1.604069113731 0.480015665293
vn  0.934492766857 1.69603562355 0.491232693195
vn  0.855778098106 1.738434433937 0.495464205742
vn  0.853043556213 1.738511681557 0.499740034342
vn  3.658997297287 6.824103355408 1.978506088257
vn  0.508412778378 0.82421463728 0.249371826649
vn  3.270152807236 4.809024810791 1.450585961342
vn  1.164570689201 1.553834319115 0.478501111269
vn  -2.380993127823 1.684398770332 0.702405929565
vn  -2.802959442139 0.869716048241 0.617470741272
vn  -1.779568552971 0.79268860817 0.452526420355
vn  -1.585397839546 1.128160715103 0.462349057198
vn  -1.610844612122 1.09589779377 0.44982367754
vn  -2.780531644821 0.922622203827 0.646073162556
vn  -1.779568076134 0.792689621449 0.452526509762
vn  -2.542687416077 1.48926627636 0.540985047817
vn  -1.779557347298 0.792714357376 0.45252519846
vn  -1.730955123901 0.88295596838 0.462146311998
vn  -1.749506592751 0.899021029472 0.335230022669
vn  -1.831290364265 0.695797085762 0.392159253359
vn  -1.853688955307 0.615078687668 0.430714160204
vn  -2.706409215927 1.100236773491 0.667886674404
vn  -1.779557466507 0.792714059353 0.452525287867
vn  -2.476528644562 1.528530955315 0.716110944748
vn  -2.376716136932 1.67746090889 0.732922017574
vn  -1.776966094971 0.806816458702 0.437517374754
vn  -1.796951413155 0.773191213608 0.415852457285
vn  -0.792698502541 0.564080297947 0.231176197529
vn  -1.660598635674 1.014161586761 0.458606004715
vn  -1.782894968987 0.796860456467 0.431280165911
vn  -2.408076047897 1.646930217743 0.697501063347
vn  -7.039330482483 3.346268177032 1.768625378609
vn  -0.880794942379 0.407683134079 0.240820750594
vn  -1.772792696953 0.803141176701 0.459802091122
vn  -1.79360473156 0.776868462563 0.423017829657
vn  -1.735861420631 0.883022904396 0.445853978395
vn  -4.098560810089 2.606578350067 1.168206810951
vn  -0.790563225746 0.560609161854 0.246428489685
vn  -2.384215116501 1.675211071968 0.71297621727
vn  0.758121371269 1.850082755089 -0.049440130591
vn  0.379060685635 0.925041377544 -0.024720065296
vn  -0.000000055706 0.121869176626 -0.992546021938
vn  -0.380632847548 -0.924678444862 -0.009380402043
vn  0.379060685635 0.925041377544 -0.024720069021
vn  0.758121371269 1.850082755089 -0.049440130591
vn  -0.000000111413 0.243738353252 -1.985092043877
vn  -0.761265695095 -1.849356889725 -0.018760798499
vn  -0.379060983658 0.925041377544 -0.024719970301
vn  -0.758121967316 1.850082755089 -0.049439940602
vn  -0.000000111413 0.243738353252 -1.985092043877
vn  0.761266291142 -1.849356889725 -0.018760995939
vn  -0.915133595467 0.392964541912 -0.090050801635
vn  -1.830267310143 0.785929203033 -0.180101588368
vn  -0.000000111413 0.243738353252 -1.985092043877
vn  1.837858438492 -0.780789673328 0.112442612648
vn  -0.915133714676 -0.359506070614 -0.182442709804
vn  -1.830267429352 -0.719012141228 -0.364885419607
vn  -0.000000111413 0.243738353252 -1.985092043877
vn  1.83785867691 0.730393350124 0.297992795706
vn  -0.379060536623 -0.891583383083 -0.247773736715
vn  -0.758121013641 -1.783166885376 -0.495547443628
vn  -0.000000111413 0.243738353252 -1.985092043877
vn  0.761265516281 1.798961758614 0.429196715355
vn  0.379060983658 -0.891583323479 -0.247773706913
vn  0.758121848106 -1.783166527748 -0.495547384024
vn  -0.000000111413 0.243738353252 -1.985092043877
vn  -0.761266469955 1.798961639404 0.429196745157
vn  0.915133655071 -0.359506428242 -0.182442843914
vn  1.830267310143 -0.719012796879 -0.364885658026
vn  -0.000000111413 0.243738353252 -1.985092043877
vn  -1.837858438492 0.730394363403 0.297993123531
# 416 vertex normals

g AGM-12_Bullpup
usemtl Material__2
s 1
f -415/-487/-415 -416/-488/-416 -413/-485/-413 -414/-456/-414
f -413/-485/-413 -416/-488/-416 -411/-483/-411 -412/-484/-412
f -411/-483/-411 -416/-488/-416 -409/-481/-409 -410/-482/-410
f -409/-481/-409 -416/-488/-416 -407/-479/-407 -408/-480/-408
f -407/-479/-407 -416/-488/-416 -405/-477/-405 -406/-478/-406
f -405/-477/-405 -416/-488/-416 -403/-475/-403 -404/-476/-404
f -403/-475/-403 -416/-488/-416 -401/-473/-401 -402/-474/-402
usemtl Material__2
s 8
f -400/-472/-400 -415/-487/-415 -414/-453/-414 -399/-454/-399
f -399/-471/-399 -414/-486/-414 -413/-485/-413 -398/-470/-398
f -398/-470/-398 -413/-485/-413 -412/-484/-412 -397/-469/-397
f -397/-469/-397 -412/-484/-412 -411/-483/-411 -396/-468/-396
f -396/-468/-396 -411/-483/-411 -410/-482/-410 -395/-467/-395
f -395/-467/-395 -410/-482/-410 -409/-481/-409 -394/-466/-394
f -394/-466/-394 -409/-481/-409 -408/-480/-408 -393/-465/-393
f -393/-465/-393 -408/-480/-408 -407/-479/-407 -392/-464/-392
f -392/-464/-392 -407/-479/-407 -406/-478/-406 -391/-463/-391
f -391/-463/-391 -406/-478/-406 -405/-477/-405 -390/-462/-390
f -390/-462/-390 -405/-477/-405 -404/-476/-404 -389/-461/-389
f -389/-461/-389 -404/-476/-404 -403/-475/-403 -388/-460/-388
f -388/-460/-388 -403/-475/-403 -402/-474/-402 -387/-459/-387
f -387/-459/-387 -402/-474/-402 -401/-473/-401 -386/-458/-386
f -386/-458/-386 -401/-473/-401 -415/-487/-415 -400/-472/-400
usemtl Material__2
s 1
f -399/-451/-399 -385/-457/-385 -386/-458/-386 -400/-472/-400
f -399/-450/-399 -398/-470/-398 -397/-469/-397 -385/-457/-385
f -397/-469/-397 -396/-468/-396 -395/-467/-395 -385/-457/-385
f -395/-467/-395 -394/-466/-394 -393/-465/-393 -385/-457/-385
f -393/-465/-393 -392/-464/-392 -391/-463/-391 -385/-457/-385
f -391/-463/-391 -390/-462/-390 -389/-461/-389 -385/-457/-385
f -389/-461/-389 -388/-460/-388 -387/-459/-387 -385/-457/-385
usemtl Material__1
f -382/-447/-382 -381/-446/-381 -383/-448/-383 -384/-449/-384
f -380/-445/-380 -379/-444/-379 -378/-443/-378 -384/-449/-384
f -378/-443/-378 -377/-442/-377 -376/-441/-376 -382/-447/-382
f -376/-441/-376 -375/-440/-375 -374/-439/-374 -381/-446/-381
f -374/-439/-374 -373/-438/-373 -380/-445/-380 -383/-448/-383
f -372/-437/-372 -371/-436/-371 -379/-444/-379 -380/-445/-380
f -371/-436/-371 -370/-435/-370 -378/-443/-378 -379/-444/-379
f -370/-435/-370 -369/-434/-369 -377/-442/-377 -378/-443/-378
f -369/-434/-369 -368/-433/-368 -376/-441/-376 -377/-442/-377
f -368/-433/-368 -367/-432/-367 -375/-440/-375 -376/-441/-376
f -367/-432/-367 -366/-431/-366 -374/-439/-374 -375/-440/-375
f -366/-431/-366 -365/-430/-365 -373/-438/-373 -374/-439/-374
f -365/-430/-365 -372/-437/-372 -380/-445/-380 -373/-438/-373
f -371/-436/-371 -372/-437/-372 -365/-430/-365 -361/-426/-361
f -361/-426/-361 -363/-428/-363 -370/-435/-370 -371/-436/-371
f -363/-428/-363 -364/-429/-364 -368/-433/-368 -369/-434/-369
f -364/-429/-364 -362/-427/-362 -366/-431/-366 -367/-432/-367
f -364/-429/-364 -363/-428/-363 -361/-426/-361 -362/-427/-362
usemtl Material__3
s 2
f -360/-425/-360 -359/-424/-359 -355/-419/-355 -356/-420/-356
s 4
f -359/-424/-359 -358/-423/-358 -354/-418/-354 -355/-419/-355
s 8
f -358/-423/-358 -357/-422/-357 -353/-417/-353 -354/-418/-354
s 17
f -357/-422/-357 -360/-421/-360 -356/-416/-356 -353/-417/-353
s 2
f -356/-420/-356 -355/-419/-355 -351/-414/-351 -352/-415/-352
s 4
f -355/-419/-355 -354/-418/-354 -350/-413/-350 -351/-414/-351
s 8
f -354/-418/-354 -353/-417/-353 -349/-412/-349 -350/-413/-350
s 17
f -353/-417/-353 -356/-416/-356 -352/-411/-352 -349/-412/-349
s 2
f -352/-415/-352 -351/-414/-351 -347/-409/-347 -348/-410/-348
s 4
f -351/-414/-351 -350/-413/-350 -346/-408/-346 -347/-409/-347
s 8
f -350/-413/-350 -349/-412/-349 -345/-407/-345 -346/-408/-346
s 17
f -349/-412/-349 -352/-411/-352 -348/-406/-348 -345/-407/-345
usemtl Material__3
s 1024
f -345/-404/-345 -348/-403/-348 -347/-402/-347 -346/-405/-346
usemtl Material__3
f -357/-425/-357 -358/-425/-358 -359/-425/-359 -360/-425/-360
usemtl Material__1
s 1
f -343/-400/-343 -339/-396/-339 -340/-397/-340 -344/-401/-344
s 4
f -342/-399/-342 -338/-395/-338 -339/-396/-339 -343/-400/-343
s 2
f -341/-398/-341 -337/-394/-337 -338/-395/-338 -342/-399/-342
s 4
f -344/-401/-344 -340/-397/-340 -337/-394/-337 -341/-398/-341
usemtl Material__1
s 16
f -341/-398/-341 -342/-399/-342 -343/-400/-343 -344/-401/-344
usemtl Material__1
f -337/-394/-337 -340/-397/-340 -339/-396/-339 -338/-395/-338
usemtl Material__1
s 1
f -335/-392/-335 -331/-388/-331 -332/-389/-332 -336/-393/-336
s 4
f -334/-391/-334 -330/-387/-330 -331/-388/-331 -335/-392/-335
s 2
f -333/-390/-333 -329/-386/-329 -330/-387/-330 -334/-391/-334
s 4
f -336/-393/-336 -332/-389/-332 -329/-386/-329 -333/-390/-333
usemtl Material__1
s 16
f -333/-390/-333 -334/-391/-334 -335/-392/-335 -336/-393/-336
usemtl Material__1
f -329/-386/-329 -332/-389/-332 -331/-388/-331 -330/-387/-330
usemtl Material__1
s 1
f -327/-384/-327 -323/-380/-323 -324/-381/-324 -328/-385/-328
s 4
f -326/-383/-326 -322/-379/-322 -323/-380/-323 -327/-384/-327
s 2
f -325/-382/-325 -321/-378/-321 -322/-379/-322 -326/-383/-326
s 4
f -328/-385/-328 -324/-381/-324 -321/-378/-321 -325/-382/-325
usemtl Material__1
s 16
f -325/-382/-325 -326/-383/-326 -327/-384/-327 -328/-385/-328
usemtl Material__1
f -321/-378/-321 -324/-381/-324 -323/-380/-323 -322/-379/-322
usemtl Material__1
s 1
f -319/-376/-319 -316/-373/-316 -317/-374/-317 -320/-377/-320
s 4
f -318/-375/-318 -315/-372/-315 -316/-373/-316 -319/-376/-319
s 2
f -320/-377/-320 -317/-374/-317 -315/-372/-315 -318/-375/-318
usemtl Material__1
s 1
f -313/-370/-313 -310/-367/-310 -311/-368/-311 -314/-371/-314
s 4
f -312/-369/-312 -309/-366/-309 -310/-367/-310 -313/-370/-313
s 2
f -314/-371/-314 -311/-368/-311 -309/-366/-309 -312/-369/-312
usemtl Material__1
s 1
f -307/-364/-307 -304/-361/-304 -305/-362/-305 -308/-365/-308
s 4
f -306/-363/-306 -303/-360/-303 -304/-361/-304 -307/-364/-307
s 2
f -308/-365/-308 -305/-362/-305 -303/-360/-303 -306/-363/-306
usemtl Material__1
s 1
f -301/-358/-301 -298/-355/-298 -299/-356/-299 -302/-359/-302
s 4
f -300/-357/-300 -297/-354/-297 -298/-355/-298 -301/-358/-301
s 2
f -302/-359/-302 -299/-356/-299 -297/-354/-297 -300/-357/-300
usemtl Material__2
s 1
f -240/-297/-240 -295/-352/-295 -238/-295/-238 -296/-353/-296
s 2
f -240/-297/-240 -239/-296/-239 -238/-295/-238 -295/-352/-295
s 1
f -238/-295/-238 -294/-351/-294 -236/-293/-236 -296/-353/-296
f -237/-294/-237 -294/-351/-294 -238/-295/-238 -239/-296/-239
f -236/-293/-236 -293/-350/-293 -234/-291/-234 -296/-353/-296
f -235/-292/-235 -293/-350/-293 -236/-293/-236 -237/-294/-237
f -234/-291/-234 -292/-349/-292 -232/-289/-232 -296/-353/-296
f -233/-290/-233 -292/-349/-292 -234/-291/-234 -235/-292/-235
f -232/-289/-232 -291/-348/-291 -230/-287/-230 -296/-353/-296
f -231/-288/-231 -291/-348/-291 -232/-289/-232 -233/-290/-233
f -230/-287/-230 -290/-347/-290 -228/-285/-228 -296/-353/-296
f -229/-286/-229 -290/-347/-290 -230/-287/-230 -231/-288/-231
f -228/-285/-228 -289/-346/-289 -226/-283/-226 -296/-353/-296
f -227/-284/-227 -289/-346/-289 -228/-285/-228 -229/-286/-229
f -226/-283/-226 -288/-345/-288 -224/-281/-224 -296/-353/-296
f -225/-282/-225 -288/-345/-288 -226/-283/-226 -227/-284/-227
f -224/-281/-224 -287/-344/-287 -222/-279/-222 -296/-353/-296
f -223/-280/-223 -287/-344/-287 -224/-281/-224 -225/-282/-225
f -222/-279/-222 -286/-343/-286 -220/-277/-220 -296/-353/-296
f -221/-278/-221 -286/-343/-286 -222/-279/-222 -223/-280/-223
f -220/-277/-220 -285/-342/-285 -218/-275/-218 -296/-353/-296
f -219/-276/-219 -285/-342/-285 -220/-277/-220 -221/-278/-221
f -218/-275/-218 -284/-341/-284 -216/-273/-216 -296/-353/-296
f -217/-274/-217 -284/-341/-284 -218/-275/-218 -219/-276/-219
f -216/-273/-216 -283/-340/-283 -214/-271/-214 -296/-353/-296
f -215/-272/-215 -283/-340/-283 -216/-273/-216 -217/-274/-217
f -214/-271/-214 -282/-339/-282 -212/-269/-212 -296/-353/-296
f -213/-270/-213 -282/-339/-282 -214/-271/-214 -215/-272/-215
f -212/-269/-212 -281/-338/-281 -210/-267/-210 -296/-353/-296
f -211/-268/-211 -281/-338/-281 -212/-269/-212 -213/-270/-213
f -210/-267/-210 -280/-337/-280 -208/-265/-208 -296/-353/-296
f -209/-266/-209 -280/-337/-280 -210/-267/-210 -211/-268/-211
f -208/-265/-208 -279/-336/-279 -206/-263/-206 -296/-353/-296
f -207/-264/-207 -279/-336/-279 -208/-265/-208 -209/-266/-209
f -206/-263/-206 -278/-335/-278 -204/-261/-204 -296/-353/-296
f -205/-262/-205 -278/-335/-278 -206/-263/-206 -207/-264/-207
f -204/-261/-204 -277/-334/-277 -202/-259/-202 -296/-353/-296
f -203/-260/-203 -277/-334/-277 -204/-261/-204 -205/-262/-205
f -202/-259/-202 -276/-333/-276 -200/-257/-200 -296/-353/-296
f -201/-258/-201 -276/-333/-276 -202/-259/-202 -203/-260/-203
f -200/-257/-200 -275/-332/-275 -198/-255/-198 -296/-353/-296
f -199/-256/-199 -275/-332/-275 -200/-257/-200 -201/-258/-201
f -198/-255/-198 -274/-331/-274 -196/-253/-196 -296/-353/-296
f -197/-254/-197 -274/-331/-274 -198/-255/-198 -199/-256/-199
f -196/-253/-196 -273/-330/-273 -194/-251/-194 -296/-353/-296
f -195/-252/-195 -273/-330/-273 -196/-253/-196 -197/-254/-197
f -194/-251/-194 -272/-329/-272 -192/-249/-192 -296/-85/-296
f -193/-250/-193 -272/-329/-272 -194/-251/-194 -195/-83/-195
f -192/-249/-192 -271/-328/-271 -190/-247/-190 -296/-81/-296
f -191/-248/-191 -271/-328/-271 -192/-249/-192 -193/-250/-193
f -190/-247/-190 -270/-327/-270 -188/-245/-188 -296/-79/-296
f -189/-246/-189 -270/-327/-270 -190/-247/-190 -191/-248/-191
f -188/-245/-188 -269/-326/-269 -186/-243/-186 -296/-77/-296
f -187/-244/-187 -269/-326/-269 -188/-245/-188 -189/-246/-189
f -186/-243/-186 -268/-325/-268 -184/-241/-184 -296/-75/-296
f -185/-242/-185 -268/-325/-268 -186/-243/-186 -187/-244/-187
f -184/-241/-184 -267/-324/-267 -182/-239/-182 -296/-73/-296
f -183/-240/-183 -267/-324/-267 -184/-241/-184 -185/-242/-185
f -182/-239/-182 -266/-323/-266 -180/-237/-180 -296/-71/-296
f -181/-238/-181 -266/-323/-266 -182/-239/-182 -183/-240/-183
f -180/-237/-180 -265/-322/-265 -178/-235/-178 -296/-69/-296
f -179/-236/-179 -265/-322/-265 -180/-237/-180 -181/-238/-181
f -178/-235/-178 -264/-321/-264 -240/-297/-240 -296/-67/-296
f -177/-234/-177 -264/-321/-264 -178/-235/-178 -179/-236/-179
f -240/-297/-240 -264/-321/-264 -177/-234/-177 -239/-296/-239
f -237/-294/-237 -239/-296/-239 -147/-204/-147 -176/-233/-176
f -175/-232/-175 -176/-233/-176 -147/-204/-147 -146/-203/-146
f -175/-232/-175 -174/-231/-174 -237/-294/-237 -176/-233/-176
f -174/-231/-174 -175/-232/-175 -143/-200/-143 -173/-230/-173
f -173/-230/-173 -172/-229/-172 -233/-290/-233 -174/-231/-174
f -172/-229/-172 -173/-230/-173 -141/-198/-141 -171/-228/-171
f -171/-228/-171 -170/-227/-170 -229/-286/-229 -172/-229/-172
f -170/-227/-170 -171/-228/-171 -139/-196/-139 -169/-226/-169
f -169/-226/-169 -168/-225/-168 -225/-282/-225 -170/-227/-170
f -168/-225/-168 -169/-226/-169 -263/-320/-263 -167/-224/-167
f -167/-224/-167 -166/-223/-166 -221/-278/-221 -168/-225/-168
f -166/-223/-166 -167/-224/-167 -262/-319/-262 -165/-222/-165
f -165/-222/-165 -164/-221/-164 -217/-274/-217 -166/-223/-166
f -164/-221/-164 -165/-222/-165 -135/-192/-135 -163/-220/-163
f -163/-220/-163 -162/-219/-162 -213/-270/-213 -164/-221/-164
f -162/-219/-162 -163/-220/-163 -133/-190/-133 -161/-218/-161
f -161/-218/-161 -160/-217/-160 -209/-266/-209 -162/-219/-162
f -160/-217/-160 -161/-218/-161 -131/-188/-131 -159/-216/-159
f -159/-216/-159 -158/-215/-158 -205/-262/-205 -160/-217/-160
f -158/-215/-158 -159/-216/-159 -129/-186/-129 -157/-214/-157
f -157/-214/-157 -156/-213/-156 -201/-258/-201 -158/-215/-158
f -156/-213/-156 -157/-214/-157 -127/-184/-127 -155/-212/-155
f -155/-65/-155 -154/-211/-154 -197/-63/-197 -156/-64/-156
f -154/-211/-154 -155/-58/-155 -125/-182/-125 -153/-210/-153
f -153/-210/-153 -152/-209/-152 -193/-250/-193 -154/-211/-154
f -152/-209/-152 -153/-210/-153 -123/-180/-123 -151/-208/-151
f -151/-208/-151 -150/-207/-150 -189/-246/-189 -152/-209/-152
f -150/-207/-150 -151/-208/-151 -121/-178/-121 -149/-206/-149
f -149/-206/-149 -148/-205/-148 -185/-242/-185 -150/-207/-150
f -149/-206/-149 -145/-202/-145 -147/-204/-147 -148/-205/-148
f -148/-205/-148 -147/-204/-147 -179/-236/-179 -181/-238/-181
f -147/-204/-147 -145/-202/-145 -118/-175/-118 -146/-203/-146
f -146/-203/-146 -144/-201/-144 -260/-317/-260 -143/-200/-143
f -143/-200/-143 -260/-317/-260 -114/-171/-114 -142/-199/-142
f -173/-230/-173 -142/-199/-142 -114/-171/-114 -141/-198/-141
f -171/-228/-171 -141/-198/-141 -114/-171/-114 -140/-197/-140
f -171/-228/-171 -140/-197/-140 -113/-170/-113 -139/-196/-139
f -169/-226/-169 -139/-196/-139 -138/-195/-138 -137/-194/-137
f -169/-226/-169 -137/-194/-137 -48/-105/-48 -263/-320/-263
f -49/-106/-49 -50/-107/-50 -136/-193/-136 -263/-320/-263
f -263/-320/-263 -136/-193/-136 -262/-319/-262 -167/-224/-167
f -51/-108/-51 -62/-119/-62 -258/-315/-258 -262/-319/-262
f -262/-319/-262 -258/-315/-258 -109/-166/-109 -135/-192/-135
f -163/-220/-163 -135/-192/-135 -109/-166/-109 -134/-191/-134
f -163/-220/-163 -134/-191/-134 -109/-166/-109 -133/-190/-133
f -161/-218/-161 -133/-190/-133 -108/-165/-108 -132/-189/-132
f -161/-218/-161 -132/-189/-132 -108/-165/-108 -131/-188/-131
f -159/-216/-159 -131/-188/-131 -107/-164/-107 -130/-187/-130
f -159/-216/-159 -130/-187/-130 -107/-164/-107 -129/-186/-129
f -157/-214/-157 -129/-186/-129 -106/-163/-106 -128/-185/-128
f -157/-214/-157 -128/-185/-128 -106/-163/-106 -127/-184/-127
f -155/-212/-155 -127/-184/-127 -105/-162/-105 -126/-183/-126
f -155/-57/-155 -126/-56/-126 -105/-53/-105 -125/-182/-125
f -153/-210/-153 -125/-182/-125 -104/-161/-104 -124/-181/-124
f -153/-210/-153 -124/-181/-124 -104/-161/-104 -123/-180/-123
f -151/-208/-151 -123/-180/-123 -103/-160/-103 -122/-179/-122
f -151/-208/-151 -122/-179/-122 -103/-160/-103 -121/-178/-121
f -149/-206/-149 -121/-178/-121 -102/-159/-102 -120/-177/-120
f -149/-206/-149 -120/-177/-120 -102/-159/-102 -119/-176/-119
f -145/-202/-145 -119/-176/-119 -102/-159/-102 -118/-175/-118
f -146/-203/-146 -118/-175/-118 -101/-158/-101 -144/-201/-144
f -78/-135/-78 -79/-136/-79 -116/-173/-116 -261/-318/-261
f -116/-173/-116 -144/-201/-144 -101/-158/-101 -261/-318/-261
f -144/-201/-144 -116/-173/-116 -90/-147/-90 -260/-317/-260
f -114/-171/-114 -260/-317/-260 -82/-139/-82 -115/-172/-115
f -139/-196/-139 -113/-170/-113 -259/-316/-259 -138/-195/-138
f -259/-316/-259 -113/-170/-113 -100/-157/-100 -110/-167/-110
f -40/-97/-40 -35/-92/-35 -41/-98/-41 -43/-100/-43
f -259/-316/-259 -110/-167/-110 -109/-166/-109 -258/-315/-258
f -261/-318/-261 -101/-158/-101 -112/-169/-112 -117/-174/-117
f -91/-148/-91 -92/-149/-92 -112/-169/-112 -257/-314/-257
f -67/-124/-67 -65/-122/-65 -71/-128/-71 -77/-134/-77
f -114/-171/-114 -115/-172/-115 -255/-312/-255 -254/-311/-254
f -114/-171/-114 -111/-168/-111 -113/-170/-113 -140/-197/-140
f -133/-190/-133 -109/-166/-109 -249/-306/-249 -108/-165/-108
f -131/-188/-131 -108/-165/-108 -248/-305/-248 -107/-164/-107
f -129/-186/-129 -107/-164/-107 -247/-304/-247 -106/-163/-106
f -127/-184/-127 -106/-163/-106 -246/-303/-246 -105/-162/-105
f -125/-182/-125 -105/-52/-105 -245/-51/-245 -104/-161/-104
f -123/-180/-123 -104/-161/-104 -244/-301/-244 -103/-160/-103
f -121/-178/-121 -103/-160/-103 -243/-300/-243 -102/-159/-102
f -118/-175/-118 -102/-159/-102 -242/-299/-242 -101/-158/-101
f -257/-314/-257 -255/-312/-255 -115/-172/-115 -85/-142/-85
f -257/-314/-257 -112/-169/-112 -256/-313/-256 -255/-312/-255
f -254/-311/-254 -253/-310/-253 -100/-157/-100 -111/-168/-111
f -252/-309/-252 -251/-308/-251 -109/-166/-109 -110/-167/-110
f -101/-158/-101 -241/-298/-241 -256/-313/-256 -112/-169/-112
s 2
f -256/-313/-256 -94/-151/-94 -99/-156/-99 -255/-312/-255
f -255/-312/-255 -99/-156/-99 -253/-310/-253 -254/-311/-254
s 1
f -100/-157/-100 -253/-310/-253 -99/-156/-99 -252/-309/-252
s 2
f -252/-309/-252 -98/-155/-98 -250/-307/-250 -251/-308/-251
f -98/-155/-98 -97/-154/-97 -249/-306/-249 -250/-307/-250
s 1
f -108/-165/-108 -249/-306/-249 -97/-154/-97 -248/-305/-248
f -107/-164/-107 -248/-305/-248 -97/-154/-97 -247/-304/-247
f -106/-163/-106 -247/-304/-247 -96/-153/-96 -246/-303/-246
f -105/-162/-105 -246/-303/-246 -96/-153/-96 -245/-302/-245
s 2
f -96/-49/-96 -95/-152/-95 -244/-301/-244 -245/-48/-245
s 1
f -103/-160/-103 -244/-301/-244 -95/-152/-95 -243/-300/-243
f -102/-159/-102 -243/-300/-243 -95/-152/-95 -242/-299/-242
f -101/-158/-101 -242/-299/-242 -94/-151/-94 -241/-298/-241
usemtl Material__2
s 2
f -98/-155/-98 -99/-156/-99 -96/-153/-96 -97/-154/-97
f -96/-45/-96 -99/-156/-99 -242/-299/-242 -95/-152/-95
usemtl Material__2
s 1
f -93/-150/-93 -89/-146/-89 -261/-318/-261 -117/-174/-117
f -112/-169/-112 -92/-149/-92 -93/-150/-93 -117/-174/-117
f -91/-148/-91 -257/-314/-257 -88/-145/-88 -83/-140/-83
f -75/-132/-75 -67/-124/-67 -77/-134/-77 -70/-127/-70
f -74/-131/-74 -67/-124/-67 -76/-133/-76 -68/-125/-68
f -90/-147/-90 -80/-137/-80 -81/-138/-81 -260/-317/-260
f -64/-121/-64 -65/-122/-65 -78/-135/-78 -73/-130/-73
f -64/-121/-64 -72/-129/-72 -71/-128/-71 -65/-122/-65
f -81/-138/-81 -87/-144/-87 -82/-139/-82 -260/-317/-260
f -67/-124/-67 -66/-123/-66 -80/-137/-80 -65/-122/-65
f -78/-135/-78 -261/-318/-261 -84/-141/-84 -86/-143/-86
f -75/-132/-75 -69/-126/-69 -76/-133/-76 -67/-124/-67
s 2
f -78/-135/-78 -65/-122/-65 -90/-147/-90 -79/-136/-79
f -72/-129/-72 -92/-149/-92 -77/-134/-77 -71/-128/-71
f -93/-150/-93 -64/-121/-64 -84/-141/-84 -89/-146/-89
s 4
f -83/-140/-83 -70/-127/-70 -77/-134/-77 -91/-148/-91
f -88/-145/-88 -75/-132/-75 -70/-127/-70 -83/-140/-83
f -87/-144/-87 -74/-131/-74 -68/-125/-68 -82/-139/-82
s 2
f -64/-121/-64 -93/-150/-93 -92/-149/-92 -72/-129/-72
f -81/-138/-81 -67/-124/-67 -74/-131/-74 -87/-144/-87
f -80/-137/-80 -66/-123/-66 -67/-124/-67 -81/-138/-81
s 4
f -85/-142/-85 -69/-126/-69 -75/-132/-75 -88/-145/-88
s 2
f -82/-139/-82 -76/-133/-76 -69/-126/-69 -85/-142/-85
s 1
f -138/-195/-138 -259/-316/-259 -60/-117/-60 -63/-120/-63
f -41/-98/-41 -35/-92/-35 -34/-91/-34 -33/-90/-33
f -33/-90/-33 -44/-101/-44 -60/-117/-60 -41/-98/-41
f -56/-113/-56 -258/-315/-258 -52/-109/-52 -53/-110/-53
f -46/-103/-46 -40/-97/-40 -45/-102/-45 -42/-99/-42
f -61/-118/-61 -263/-320/-263 -54/-111/-54 -57/-114/-57
f -35/-92/-35 -40/-97/-40 -46/-103/-46 -36/-93/-36
f -48/-105/-48 -137/-194/-137 -138/-195/-138 -47/-104/-47
f -51/-108/-51 -262/-319/-262 -136/-193/-136 -58/-115/-58
f -60/-117/-60 -259/-316/-259 -56/-113/-56 -59/-116/-59
f -37/-94/-37 -40/-97/-40 -39/-96/-39 -38/-95/-38
f -49/-106/-49 -263/-320/-263 -61/-118/-61 -55/-112/-55
s 2
f -50/-107/-50 -49/-106/-49 -42/-99/-42 -45/-102/-45
f -62/-119/-62 -51/-108/-51 -45/-102/-45 -37/-94/-37
f -50/-107/-50 -45/-102/-45 -51/-108/-51 -58/-115/-58
f -39/-96/-39 -52/-109/-52 -37/-94/-37 -38/-95/-38
s 4
f -60/-117/-60 -44/-101/-44 -33/-90/-33 -63/-120/-63
s 8
f -53/-110/-53 -40/-97/-40 -43/-100/-43 -56/-113/-56
s 2
f -61/-118/-61 -46/-103/-46 -42/-99/-42 -55/-112/-55
s 4
f -47/-104/-47 -34/-91/-34 -35/-92/-35 -48/-105/-48
f -63/-120/-63 -33/-90/-33 -34/-91/-34 -47/-104/-47
s 2
f -52/-109/-52 -39/-96/-39 -40/-97/-40 -53/-110/-53
f -54/-111/-54 -36/-93/-36 -46/-103/-46 -57/-114/-57
f -48/-105/-48 -35/-92/-35 -36/-93/-36 -54/-111/-54
s 8
f -56/-113/-56 -43/-100/-43 -41/-98/-41 -59/-116/-59
usemtl Material__2
s 2
f -28/-40/-28 -32/-44/-32 -31/-43/-31 -27/-39/-27
usemtl Material__2
s 4
f -27/-39/-27 -31/-43/-31 -30/-42/-30 -26/-38/-26
usemtl Material__2
s 2
f -26/-38/-26 -30/-42/-30 -29/-41/-29 -25/-37/-25
usemtl Material__2
s 4
f -25/-37/-25 -29/-41/-29 -32/-44/-32 -28/-40/-28
usemtl Material__2
s 2
f -24/-36/-24 -28/-40/-28 -27/-39/-27 -23/-35/-23
usemtl Material__2
s 4
f -23/-35/-23 -27/-39/-27 -26/-38/-26 -22/-34/-22
usemtl Material__2
s 2
f -22/-34/-22 -26/-38/-26 -25/-37/-25 -21/-33/-21
usemtl Material__2
s 4
f -21/-33/-21 -25/-37/-25 -28/-40/-28 -24/-36/-24
usemtl Material__2
s 2
f -20/-32/-20 -24/-36/-24 -23/-35/-23 -19/-31/-19
usemtl Material__2
s 4
f -19/-31/-19 -23/-35/-23 -22/-34/-22 -18/-30/-18
usemtl Material__2
s 2
f -18/-30/-18 -22/-34/-22 -21/-33/-21 -17/-29/-17
usemtl Material__2
s 4
f -17/-29/-17 -21/-33/-21 -24/-36/-24 -20/-32/-20
usemtl Material__2
s 2
f -16/-28/-16 -20/-32/-20 -19/-31/-19 -15/-27/-15
usemtl Material__2
s 4
f -15/-27/-15 -19/-31/-19 -18/-30/-18 -14/-26/-14
usemtl Material__2
s 2
f -14/-26/-14 -18/-30/-18 -17/-29/-17 -13/-25/-13
usemtl Material__2
s 4
f -13/-25/-13 -17/-29/-17 -20/-32/-20 -16/-28/-16
usemtl Material__2
s 2
f -12/-24/-12 -16/-28/-16 -15/-27/-15 -11/-23/-11
usemtl Material__2
s 4
f -11/-23/-11 -15/-27/-15 -14/-26/-14 -10/-22/-10
usemtl Material__2
s 2
f -10/-22/-10 -14/-26/-14 -13/-25/-13 -9/-21/-9
usemtl Material__2
s 4
f -9/-21/-9 -13/-25/-13 -16/-28/-16 -12/-24/-12
usemtl Material__2
s 2
f -8/-20/-8 -12/-12/-12 -11/-10/-11 -7/-19/-7
usemtl Material__2
s 4
f -7/-19/-7 -11/-9/-11 -10/-7/-10 -6/-18/-6
usemtl Material__2
s 2
f -6/-18/-6 -10/-6/-10 -9/-4/-9 -5/-17/-5
usemtl Material__2
s 4
f -5/-17/-5 -9/-3/-9 -12/-1/-12 -8/-20/-8
usemtl Material__2
s 2
f -4/-16/-4 -8/-20/-8 -7/-19/-7 -3/-15/-3
usemtl Material__2
s 4
f -3/-15/-3 -7/-19/-7 -6/-18/-6 -2/-14/-2
usemtl Material__2
s 2
f -2/-14/-2 -6/-18/-6 -5/-17/-5 -1/-13/-1
usemtl Material__2
s 4
f -1/-13/-1 -5/-17/-5 -8/-20/-8 -4/-16/-4
usemtl Material__2
s 2
f -32/-44/-32 -4/-16/-4 -3/-15/-3 -31/-43/-31
usemtl Material__2
s 4
f -31/-43/-31 -3/-15/-3 -2/-14/-2 -30/-42/-30
usemtl Material__2
s 2
f -30/-42/-30 -2/-14/-2 -1/-13/-1 -29/-41/-29
usemtl Material__2
s 4
f -29/-41/-29 -1/-13/-1 -4/-16/-4 -32/-44/-32
usemtl Material__2
s 1
f -416/-488/-416 -415/-487/-415 -401/-473/-401
usemtl Material__2
f -385/-457/-385 -387/-459/-387 -386/-458/-386
usemtl Material__1
f -384/-449/-384 -378/-443/-378 -382/-447/-382
f -382/-447/-382 -376/-441/-376 -381/-446/-381
f -381/-446/-381 -374/-439/-374 -383/-448/-383
f -383/-448/-383 -380/-445/-380 -384/-449/-384
f -370/-435/-370 -363/-428/-363 -369/-434/-369
f -368/-433/-368 -364/-429/-364 -367/-432/-367
f -366/-431/-366 -362/-427/-362 -365/-430/-365
f -365/-430/-365 -362/-427/-362 -361/-426/-361
usemtl Material__1
s 16
f -319/-376/-319 -320/-377/-320 -318/-375/-318
usemtl Material__1
f -316/-373/-316 -315/-372/-315 -317/-374/-317
usemtl Material__1
f -313/-370/-313 -314/-371/-314 -312/-369/-312
usemtl Material__1
f -310/-367/-310 -309/-366/-309 -311/-368/-311
usemtl Material__1
f -307/-364/-307 -308/-365/-308 -306/-363/-306
usemtl Material__1
f -304/-361/-304 -303/-360/-303 -305/-362/-305
usemtl Material__1
f -301/-358/-301 -302/-359/-302 -300/-357/-300
usemtl Material__1
f -298/-355/-298 -297/-354/-297 -299/-356/-299
usemtl Material__2
s 2
f -237/-294/-237 -236/-293/-236 -294/-351/-294
f -235/-292/-235 -234/-291/-234 -293/-350/-293
f -233/-290/-233 -232/-289/-232 -292/-349/-292
f -231/-288/-231 -230/-287/-230 -291/-348/-291
f -229/-286/-229 -228/-285/-228 -290/-347/-290
f -227/-284/-227 -226/-283/-226 -289/-346/-289
f -225/-282/-225 -224/-281/-224 -288/-345/-288
f -223/-280/-223 -222/-279/-222 -287/-344/-287
f -221/-278/-221 -220/-277/-220 -286/-343/-286
f -219/-276/-219 -218/-275/-218 -285/-342/-285
f -217/-274/-217 -216/-273/-216 -284/-341/-284
f -215/-272/-215 -214/-271/-214 -283/-340/-283
f -213/-270/-213 -212/-269/-212 -282/-339/-282
f -211/-268/-211 -210/-267/-210 -281/-338/-281
f -209/-266/-209 -208/-265/-208 -280/-337/-280
f -207/-264/-207 -206/-263/-206 -279/-336/-279
f -205/-262/-205 -204/-261/-204 -278/-335/-278
f -203/-260/-203 -202/-259/-202 -277/-334/-277
f -201/-258/-201 -200/-257/-200 -276/-333/-276
f -199/-256/-199 -198/-255/-198 -275/-332/-275
f -197/-254/-197 -196/-253/-196 -274/-331/-274
f -195/-87/-195 -194/-251/-194 -273/-86/-273
f -193/-250/-193 -192/-249/-192 -272/-329/-272
f -191/-248/-191 -190/-247/-190 -271/-328/-271
f -189/-246/-189 -188/-245/-188 -270/-327/-270
f -187/-244/-187 -186/-243/-186 -269/-326/-269
f -185/-242/-185 -184/-241/-184 -268/-325/-268
f -183/-240/-183 -182/-239/-182 -267/-324/-267
f -181/-238/-181 -180/-237/-180 -266/-323/-266
f -179/-236/-179 -178/-235/-178 -265/-322/-265
s 1
f -237/-294/-237 -174/-231/-174 -235/-292/-235
f -235/-292/-235 -174/-231/-174 -233/-290/-233
f -233/-290/-233 -172/-229/-172 -231/-288/-231
f -231/-288/-231 -172/-229/-172 -229/-286/-229
f -229/-286/-229 -170/-227/-170 -227/-284/-227
f -227/-284/-227 -170/-227/-170 -225/-282/-225
f -225/-282/-225 -168/-225/-168 -223/-280/-223
f -223/-280/-223 -168/-225/-168 -221/-278/-221
f -221/-278/-221 -166/-223/-166 -219/-276/-219
f -219/-276/-219 -166/-223/-166 -217/-274/-217
f -217/-274/-217 -164/-221/-164 -215/-272/-215
f -215/-272/-215 -164/-221/-164 -213/-270/-213
f -213/-270/-213 -162/-219/-162 -211/-268/-211
f -211/-268/-211 -162/-219/-162 -209/-266/-209
f -209/-266/-209 -160/-217/-160 -207/-264/-207
f -207/-264/-207 -160/-217/-160 -205/-262/-205
f -205/-262/-205 -158/-215/-158 -203/-260/-203
f -203/-260/-203 -158/-215/-158 -201/-258/-201
f -201/-258/-201 -156/-213/-156 -199/-256/-199
f -199/-256/-199 -156/-213/-156 -197/-254/-197
f -197/-61/-197 -154/-211/-154 -195/-60/-195
f -195/-59/-195 -154/-211/-154 -193/-250/-193
f -193/-250/-193 -152/-209/-152 -191/-248/-191
f -191/-248/-191 -152/-209/-152 -189/-246/-189
f -189/-246/-189 -150/-207/-150 -187/-244/-187
f -187/-244/-187 -150/-207/-150 -185/-242/-185
f -185/-242/-185 -148/-205/-148 -183/-240/-183
f -183/-240/-183 -148/-205/-148 -181/-238/-181
f -179/-236/-179 -147/-204/-147 -177/-234/-177
f -239/-296/-239 -177/-234/-177 -147/-204/-147
f -175/-232/-175 -146/-203/-146 -143/-200/-143
f -173/-230/-173 -143/-200/-143 -142/-199/-142
f -165/-222/-165 -262/-319/-262 -135/-192/-135
f -149/-206/-149 -119/-176/-119 -145/-202/-145
f -114/-171/-114 -254/-311/-254 -111/-168/-111
f -113/-170/-113 -111/-168/-111 -100/-157/-100
f -100/-157/-100 -252/-309/-252 -110/-167/-110
s 2
f -99/-156/-99 -98/-155/-98 -252/-309/-252
s 1
f -251/-308/-251 -250/-307/-250 -109/-166/-109
f -250/-307/-250 -249/-306/-249 -109/-166/-109
s 2
f -97/-154/-97 -96/-153/-96 -247/-304/-247
s 1
f -245/-47/-245 -244/-301/-244 -104/-161/-104
s 2
f -94/-151/-94 -256/-313/-256 -241/-298/-241
usemtl Material__2
f -242/-299/-242 -99/-156/-99 -94/-151/-94
usemtl Material__2
s 1
f -88/-145/-88 -257/-314/-257 -85/-142/-85
f -82/-139/-82 -85/-142/-85 -115/-172/-115
f -261/-318/-261 -89/-146/-89 -84/-141/-84
f -90/-147/-90 -116/-173/-116 -79/-136/-79
s 2
f -92/-149/-92 -91/-148/-91 -77/-134/-77
f -80/-137/-80 -90/-147/-90 -65/-122/-65
s 4
f -68/-125/-68 -76/-133/-76 -82/-139/-82
s 2
f -78/-135/-78 -86/-143/-86 -73/-130/-73
f -86/-143/-86 -84/-141/-84 -73/-130/-73
f -64/-121/-64 -73/-130/-73 -84/-141/-84
s 1
f -54/-111/-54 -263/-320/-263 -48/-105/-48
f -259/-316/-259 -258/-315/-258 -56/-113/-56
f -52/-109/-52 -258/-315/-258 -62/-119/-62
f -138/-195/-138 -63/-120/-63 -47/-104/-47
f -45/-102/-45 -40/-97/-40 -37/-94/-37
f -58/-115/-58 -136/-193/-136 -50/-107/-50
s 2
f -61/-118/-61 -57/-114/-57 -46/-103/-46
s 8
f -60/-117/-60 -59/-116/-59 -41/-98/-41
s 2
f -52/-109/-52 -62/-119/-62 -37/-94/-37
f -49/-106/-49 -55/-112/-55 -42/-99/-42
# 450 faces

g
