# Max2Mtl Version 3.0, Jul 11th, 1999
#
newmtl background
Ka  0 0 0
Kd  0.8156863451 0.800000071526 0.690196096897
Ks  0.899999976158 0.899999976158 0.899999976158
d  1
Ns  0
illum 2
#
# Multi/Sub Material__362 (34) to come
#
newmtl Material__2
Ka  0.066666007042 0.184311896563 0.05882294476
Kd  0.701960802078 0.662745118141 0.600000023842
Ks  0.899999976158 0.899999976158 0.899999976158
d  1
Ns  1.499999880791
illum 2
#
newmtl Material__2
Ka  0.066666007042 0.184311896563 0.05882294476
Kd  0.701960802078 0.662745118141 0.600000023842
Ks  0.899999976158 0.899999976158 0.899999976158
d  1
Ns  1.499999880791
illum 2
#
newmtl Material__2
Ka  0.066666007042 0.184311896563 0.05882294476
Kd  0.701960802078 0.662745118141 0.600000023842
Ks  0.899999976158 0.899999976158 0.899999976158
d  1
Ns  1.499999880791
illum 2
#
newmtl Material__1
Ka  0.066666670144 0.066666670144 0.066666670144
Kd  0.796078503132 0.776470661163 0.690196096897
Ks  0.898039281368 0.898039281368 0.898039281368
d  1
Ns  1.499999880791
illum 2
#
newmtl Material__3
Ka  0.058823533356 0.058823533356 0.058823533356
Kd  0.925490260124 0.874509871006 0.690196096897
Ks  0.898039281368 0.898039281368 0.898039281368
d  1
Ns  1.499999880791
illum 2
#
newmtl Material__3
Ka  0.058823533356 0.058823533356 0.058823533356
Kd  0.925490260124 0.874509871006 0.690196096897
Ks  0.898039281368 0.898039281368 0.898039281368
d  1
Ns  1.499999880791
illum 2
#
newmtl Material__3
Ka  0.058823533356 0.058823533356 0.058823533356
Kd  0.925490260124 0.874509871006 0.690196096897
Ks  0.898039281368 0.898039281368 0.898039281368
d  1
Ns  1.499999880791
illum 2
#
newmtl Material__1
Ka  0.066666670144 0.066666670144 0.066666670144
Kd  0.796078503132 0.776470661163 0.690196096897
Ks  0.898039281368 0.898039281368 0.898039281368
d  1
Ns  1.499999880791
illum 2
#
newmtl Material__1
Ka  0.066666670144 0.066666670144 0.066666670144
Kd  0.796078503132 0.776470661163 0.690196096897
Ks  0.898039281368 0.898039281368 0.898039281368
d  1
Ns  1.499999880791
illum 2
#
newmtl Material__1
Ka  0.066666670144 0.066666670144 0.066666670144
Kd  0.796078503132 0.776470661163 0.690196096897
Ks  0.898039281368 0.898039281368 0.898039281368
d  1
Ns  1.499999880791
illum 2
#
newmtl Material__1
Ka  0.066666670144 0.066666670144 0.066666670144
Kd  0.796078503132 0.776470661163 0.690196096897
Ks  0.898039281368 0.898039281368 0.898039281368
d  1
Ns  1.499999880791
illum 2
#
newmtl Material__1
Ka  0.066666670144 0.066666670144 0.066666670144
Kd  0.796078503132 0.776470661163 0.690196096897
Ks  0.898039281368 0.898039281368 0.898039281368
d  1
Ns  1.499999880791
illum 2
#
newmtl Material__1
Ka  0.066666670144 0.066666670144 0.066666670144
Kd  0.796078503132 0.776470661163 0.690196096897
Ks  0.898039281368 0.898039281368 0.898039281368
d  1
Ns  1.499999880791
illum 2
#
newmtl Material__1
Ka  0.066666670144 0.066666670144 0.066666670144
Kd  0.796078503132 0.776470661163 0.690196096897
Ks  0.898039281368 0.898039281368 0.898039281368
d  1
Ns  1.499999880791
illum 2
#
newmtl Material__1
Ka  0.066666670144 0.066666670144 0.066666670144
Kd  0.796078503132 0.776470661163 0.690196096897
Ks  0.898039281368 0.898039281368 0.898039281368
d  1
Ns  1.499999880791
illum 2
#
newmtl Material__1
Ka  0.066666670144 0.066666670144 0.066666670144
Kd  0.796078503132 0.776470661163 0.690196096897
Ks  0.898039281368 0.898039281368 0.898039281368
d  1
Ns  1.499999880791
illum 2
#
newmtl Material__1
Ka  0.066666670144 0.066666670144 0.066666670144
Kd  0.796078503132 0.776470661163 0.690196096897
Ks  0.898039281368 0.898039281368 0.898039281368
d  1
Ns  1.499999880791
illum 2
#
newmtl Material__1
Ka  0.066666670144 0.066666670144 0.066666670144
Kd  0.796078503132 0.776470661163 0.690196096897
Ks  0.898039281368 0.898039281368 0.898039281368
d  1
Ns  1.499999880791
illum 2
#
newmtl Material__1
Ka  0.066666670144 0.066666670144 0.066666670144
Kd  0.796078503132 0.776470661163 0.690196096897
Ks  0.898039281368 0.898039281368 0.898039281368
d  1
Ns  1.499999880791
illum 2
#
newmtl Material__1
Ka  0.066666670144 0.066666670144 0.066666670144
Kd  0.796078503132 0.776470661163 0.690196096897
Ks  0.898039281368 0.898039281368 0.898039281368
d  1
Ns  1.499999880791
illum 2
#
newmtl Material__1
Ka  0.066666670144 0.066666670144 0.066666670144
Kd  0.796078503132 0.776470661163 0.690196096897
Ks  0.898039281368 0.898039281368 0.898039281368
d  1
Ns  1.499999880791
illum 2
#
newmtl Material__1
Ka  0.066666670144 0.066666670144 0.066666670144
Kd  0.796078503132 0.776470661163 0.690196096897
Ks  0.898039281368 0.898039281368 0.898039281368
d  1
Ns  1.499999880791
illum 2
#
newmtl Material__1
Ka  0.066666670144 0.066666670144 0.066666670144
Kd  0.796078503132 0.776470661163 0.690196096897
Ks  0.898039281368 0.898039281368 0.898039281368
d  1
Ns  1.499999880791
illum 2
#
newmtl Material__1
Ka  0.066666670144 0.066666670144 0.066666670144
Kd  0.796078503132 0.776470661163 0.690196096897
Ks  0.898039281368 0.898039281368 0.898039281368
d  1
Ns  1.499999880791
illum 2
#
newmtl Material__1
Ka  0.066666670144 0.066666670144 0.066666670144
Kd  0.796078503132 0.776470661163 0.690196096897
Ks  0.898039281368 0.898039281368 0.898039281368
d  1
Ns  1.499999880791
illum 2
#
newmtl Material__1
Ka  0.066666670144 0.066666670144 0.066666670144
Kd  0.796078503132 0.776470661163 0.690196096897
Ks  0.898039281368 0.898039281368 0.898039281368
d  1
Ns  1.499999880791
illum 2
#
newmtl Material__1
Ka  0.066666670144 0.066666670144 0.066666670144
Kd  0.796078503132 0.776470661163 0.690196096897
Ks  0.898039281368 0.898039281368 0.898039281368
d  1
Ns  1.499999880791
illum 2
#
newmtl Material__1
Ka  0.066666670144 0.066666670144 0.066666670144
Kd  0.796078503132 0.776470661163 0.690196096897
Ks  0.898039281368 0.898039281368 0.898039281368
d  1
Ns  1.499999880791
illum 2
#
newmtl Material__2
Ka  0.066666007042 0.184311896563 0.05882294476
Kd  0.701960802078 0.662745118141 0.600000023842
Ks  0.899999976158 0.899999976158 0.899999976158
d  1
Ns  1.499999880791
illum 2
#
newmtl Material__2
Ka  0.066666007042 0.184311896563 0.05882294476
Kd  0.701960802078 0.662745118141 0.600000023842
Ks  0.899999976158 0.899999976158 0.899999976158
d  1
Ns  1.499999880791
illum 2
#
newmtl Material__2
Ka  0.066666007042 0.184311896563 0.05882294476
Kd  0.701960802078 0.662745118141 0.600000023842
Ks  0.899999976158 0.899999976158 0.899999976158
d  1
Ns  1.499999880791
illum 2
#
newmtl Material__2
Ka  0.066666007042 0.184311896563 0.05882294476
Kd  0.701960802078 0.662745118141 0.600000023842
Ks  0.899999976158 0.899999976158 0.899999976158
d  1
Ns  1.499999880791
illum 2
#
newmtl Material__2
Ka  0.066666007042 0.184311896563 0.05882294476
Kd  0.701960802078 0.662745118141 0.600000023842
Ks  0.899999976158 0.899999976158 0.899999976158
d  1
Ns  1.499999880791
illum 2
#
newmtl Material__2
Ka  0.066666007042 0.184311896563 0.05882294476
Kd  0.701960802078 0.662745118141 0.600000023842
Ks  0.899999976158 0.899999976158 0.899999976158
d  1
Ns  1.499999880791
illum 2
#
# Multi/Sub Material__362 done
#
# EOF
